<?xml version="1.0" standalone="no"?>
<!DOCTYPE svg PUBLIC "-//W3C//DTD SVG 20010904//EN" "http://www.w3.org/TR/2001/REC-SVG-20010904/DTD/svg10.dtd">
<!-- Created using Krita: http://krita.org -->
<svg xmlns="http://www.w3.org/2000/svg" 
    xmlns:xlink="http://www.w3.org/1999/xlink"
    xmlns:krita="http://krita.org/namespaces/svg/krita"
    xmlns:sodipodi="http://sodipodi.sourceforge.net/DTD/sodipodi-0.dtd"
    width="785.52pt"
    height="785.52pt"
    viewBox="0 0 785.52 785.52">
<defs/>
<path id="shape0" transform="matrix(0.787664613934165 0.616104257375279 -0.616104257375279 0.787664613934165 327.0496355618 282.59964277459)" fill="#aca09f" fill-rule="evenodd" stroke="#aca09f" stroke-width="3.6" stroke-linecap="square" stroke-linejoin="bevel" d="M0.586286 81.7137L0 0.433459L24.192 0L23.0811 81.2802C22.9989 81.3152 15.5006 81.4597 0.586286 81.7137Z"/><path id="shape1" transform="matrix(0.787664613934165 0.616104257375279 -0.616104257375279 0.787664613934165 351.442546212295 250.058144003927)" fill="#d4342e" fill-rule="evenodd" stroke="#d4342e" stroke-width="3.6" stroke-linecap="square" stroke-linejoin="bevel" d="M0 40.2911L12.6225 0L25.8122 40.0264C25.8122 40.0264 17.2082 40.1146 0 40.2911Z"/><path id="shape2" transform="matrix(0.787664613934165 0.616104257375279 -0.616104257375279 0.787664613934165 271.843193399836 329.514032297938)" fill="#d4342e" fill-rule="evenodd" stroke="#d4342e" stroke-width="3.6" stroke-linecap="square" stroke-linejoin="bevel" d="M13.3611 0.70273L0 23.4068L26.0434 17.785L46.3166 23.2755L37.7691 0L25.4417 7.28343C25.4417 7.28343 21.4149 5.08987 13.3611 0.70273Z"/><path id="shape3" transform="matrix(0.787664613934165 0.616104257375279 -0.616104257375279 0.787664613934165 302.217175408458 314.377878435972)" fill="none" stroke="#d4342e" stroke-width="3.6" stroke-linecap="square" stroke-linejoin="miter" stroke-miterlimit="2" d="M0 0L23.5103 0.127279"/><path id="shape0" transform="matrix(0.787664617045528 0.616104259808959 -0.616104259808959 0.787664617045528 307.246112325962 307.904200428265)" fill="none" stroke="#d4342e" stroke-width="3.6" stroke-linecap="square" stroke-linejoin="miter" stroke-miterlimit="2" d="M0 0L23.5103 0.127279"/><path id="shape01" transform="matrix(0.787664633412703 0.616104272611218 -0.616104272611218 0.787664633412703 312.667161202927 301.159430133511)" fill="none" stroke="#d4342e" stroke-width="3.6" stroke-linecap="square" stroke-linejoin="miter" stroke-miterlimit="2" d="M0 0L23.5103 0.127279"/>
</svg>
