<?xml version="1.0" standalone="no"?>
<!DOCTYPE svg PUBLIC "-//W3C//DTD SVG 20010904//EN" "http://www.w3.org/TR/2001/REC-SVG-20010904/DTD/svg10.dtd">
<!-- Created using Krita: http://krita.org -->
<svg xmlns="http://www.w3.org/2000/svg" 
    xmlns:xlink="http://www.w3.org/1999/xlink"
    xmlns:krita="http://krita.org/namespaces/svg/krita"
    xmlns:sodipodi="http://sodipodi.sourceforge.net/DTD/sodipodi-0.dtd"
    width="785.52pt"
    height="785.52pt"
    viewBox="0 0 785.52 785.52">
<defs/>
<text id="shape0" krita:useRichText="true" transform="translate(279.473139995568, 418.26)" fill="#b63b3a" font-family="Bahnschrift SemiBold" font-size="48" font-size-adjust="0.210526" font-stretch="normal" kerning="0" letter-spacing="0" word-spacing="0"><tspan x="0">Prêt !</tspan></text>
</svg>
