<?xml version="1.0" standalone="no"?>
<!DOCTYPE svg PUBLIC "-//W3C//DTD SVG 20010904//EN" "http://www.w3.org/TR/2001/REC-SVG-20010904/DTD/svg10.dtd">
<!-- Created using Krita: http://krita.org -->
<svg xmlns="http://www.w3.org/2000/svg" 
    xmlns:xlink="http://www.w3.org/1999/xlink"
    xmlns:krita="http://krita.org/namespaces/svg/krita"
    xmlns:sodipodi="http://sodipodi.sourceforge.net/DTD/sodipodi-0.dtd"
    width="785.52pt"
    height="785.52pt"
    viewBox="0 0 785.52 785.52">
<defs/>
<path id="shape0" transform="translate(201.229701133669, 392.76)" fill="#515655" fill-rule="evenodd" stroke="#515655" stroke-width="3.6" stroke-linecap="square" stroke-linejoin="bevel" d="M0 33.1686L21.9703 0L402.994 0L415.399 31.6449C415.317 31.715 276.85 32.2229 0 33.1686Z"/><path id="shape1" transform="translate(108.339425326923, 418.416798238151)" fill="#565c5b" fill-rule="evenodd" stroke="#565c5b" stroke-width="3.6" stroke-linecap="square" stroke-linejoin="bevel" d="M67.5771 0L522.751 1.53681L588.014 103.794L517.104 210.149L67.6697 209.361L0 104.582C0 104.424 22.5257 69.5637 67.5771 0Z"/><path id="shape2" transform="translate(146.139424180207, 440.993175938152)" fill="#333736" fill-rule="evenodd" stroke="#333736" stroke-width="3.6" stroke-linecap="square" stroke-linejoin="bevel" d="M0 83.5657C25.2617 40.2373 41.4514 12.3821 48.5691 0L469.646 0.551676L517.968 78.6006L460.327 163.217L43.7554 164.399C43.7554 164.399 29.1703 137.455 0 83.5657Z"/><ellipse id="shape3" transform="translate(218.921145646119, 489.549387998964)" rx="60.747421125017" ry="56.8527592409598" cx="60.747421125017" cy="56.8527592409598" fill="#4c5151" fill-rule="evenodd" stroke="#4c5151" stroke-width="3.6" stroke-linecap="square" stroke-linejoin="bevel"/><ellipse id="shape0" transform="matrix(0.999999993015873 0 0 0.999999993015873 344.270026797539 491.23619987611)" rx="60.747421125017" ry="56.8527592409598" cx="60.747421125017" cy="56.8527592409598" fill="#4c5151" fill-rule="evenodd" stroke="#4c5151" stroke-width="3.6" stroke-linecap="square" stroke-linejoin="bevel"/><ellipse id="shape01" transform="matrix(0.999999993015873 0 0 0.999999993015873 468.631480987733 488.509598772858)" rx="60.747421125017" ry="56.8527592409598" cx="60.747421125017" cy="56.8527592409598" fill="#4c5151" fill-rule="evenodd" stroke="#4c5151" stroke-width="3.6" stroke-linecap="square" stroke-linejoin="bevel"/><ellipse id="shape02" transform="matrix(0.999999970796995 0 0 0.999999970796995 572.627210907526 451.326146114788)" rx="31.5149555944117" ry="31.0242128160551" cx="31.5149555944117" cy="31.0242128160551" fill="#4c5151" fill-rule="evenodd" stroke="#4c5151" stroke-width="3.6" stroke-linecap="square" stroke-linejoin="bevel"/><ellipse id="shape03" transform="matrix(0.999999966206469 0 0 0.999999966206469 177.062187499796 448.609086299137)" rx="31.5149555944117" ry="31.0242128160551" cx="31.5149555944117" cy="31.0242128160551" fill="#4c5151" fill-rule="evenodd" stroke="#4c5151" stroke-width="3.6" stroke-linecap="square" stroke-linejoin="bevel"/><ellipse id="shape4" transform="translate(225.007835390352, 497.743607817699)" rx="53.5227287919836" ry="49.8530330974517" cx="53.5227287919836" cy="49.8530330974517" fill="#454949" fill-rule="evenodd" stroke="#454949" stroke-width="3.6" stroke-linecap="square" stroke-linejoin="bevel"/><ellipse id="shape04" transform="matrix(1.00000000291861 0 0 1.00000000291861 351.121902234128 497.700095151376)" rx="53.5227287919836" ry="49.8530330974517" cx="53.5227287919836" cy="49.8530330974517" fill="#454949" fill-rule="evenodd" stroke="#454949" stroke-width="3.6" stroke-linecap="square" stroke-linejoin="bevel"/><ellipse id="shape05" transform="matrix(0.999999958969783 0 0 0.999999958969783 476.035895089538 495.306707598613)" rx="53.5227287919836" ry="49.8530330974517" cx="53.5227287919836" cy="49.8530330974517" fill="#454949" fill-rule="evenodd" stroke="#454949" stroke-width="3.6" stroke-linecap="square" stroke-linejoin="bevel"/><ellipse id="shape06" transform="matrix(0.999999934790305 0 0 0.999999934790305 576.691220090389 456.20792751741)" rx="27.1322941675078" ry="26.0573252865029" cx="27.1322941675078" cy="26.0573252865029" fill="#454949" fill-rule="evenodd" stroke="#454949" stroke-width="3.6" stroke-linecap="square" stroke-linejoin="bevel"/><ellipse id="shape07" transform="matrix(0.999999912329301 0 0 0.999999912329301 181.238125554068 453.72810203411)" rx="27.1322941675078" ry="26.0573252865029" cx="27.1322941675078" cy="26.0573252865029" fill="#454949" fill-rule="evenodd" stroke="#454949" stroke-width="3.6" stroke-linecap="square" stroke-linejoin="bevel"/><ellipse id="shape08" transform="matrix(0.999999960497836 0 0 0.999999960497836 249.970298943849 440.958677163704)" rx="23.0674324418359" ry="21.587596843336" cx="23.0674324418359" cy="21.587596843336" fill="#4c5151" fill-rule="evenodd" stroke="#4c5151" stroke-width="3.6" stroke-linecap="square" stroke-linejoin="bevel"/><ellipse id="shape09" transform="matrix(0.999999957227924 0 0 0.999999957227924 305.667761454927 439.638073979973)" rx="23.0674324418359" ry="21.587596843336" cx="23.0674324418359" cy="21.587596843336" fill="#4c5151" fill-rule="evenodd" stroke="#4c5151" stroke-width="3.6" stroke-linecap="square" stroke-linejoin="bevel"/><ellipse id="shape010" transform="matrix(0.999999933484 0 0 0.999999933484 358.742360309988 440.366541555716)" rx="23.0674324418359" ry="21.587596843336" cx="23.0674324418359" cy="21.587596843336" fill="#4c5151" fill-rule="evenodd" stroke="#4c5151" stroke-width="3.6" stroke-linecap="square" stroke-linejoin="bevel"/><ellipse id="shape011" transform="matrix(0.999999946539486 0 0 0.999999946539486 410.922117171251 439.899723516363)" rx="23.0674324418359" ry="21.587596843336" cx="23.0674324418359" cy="21.587596843336" fill="#4c5151" fill-rule="evenodd" stroke="#4c5151" stroke-width="3.6" stroke-linecap="square" stroke-linejoin="bevel"/><ellipse id="shape012" transform="matrix(0.999999922103976 0 0 0.999999922103976 464.768141951542 440.904031969918)" rx="23.0674324418359" ry="21.587596843336" cx="23.0674324418359" cy="21.587596843336" fill="#4c5151" fill-rule="evenodd" stroke="#4c5151" stroke-width="3.6" stroke-linecap="square" stroke-linejoin="bevel"/><ellipse id="shape013" transform="matrix(0.999999892561006 0 0 0.999999892561006 517.781020320755 440.266438071557)" rx="23.0674324418359" ry="21.587596843336" cx="23.0674324418359" cy="21.587596843336" fill="#4c5151" fill-rule="evenodd" stroke="#4c5151" stroke-width="3.6" stroke-linecap="square" stroke-linejoin="bevel"/><ellipse id="shape014" transform="matrix(0.999999894894203 0 0 0.999999894894203 253.805151056518 445.676122506027)" rx="19.0002883251454" ry="17.4441435233168" cx="19.0002883251454" cy="17.4441435233168" fill="#454949" fill-rule="evenodd" stroke="#454949" stroke-width="3.6" stroke-linecap="square" stroke-linejoin="bevel"/><ellipse id="shape015" transform="matrix(0.999999850105526 0 0 0.999999850105526 309.383458103915 444.170443876357)" rx="19.0002883251454" ry="17.4441435233168" cx="19.0002883251454" cy="17.4441435233168" fill="#454949" fill-rule="evenodd" stroke="#454949" stroke-width="3.6" stroke-linecap="square" stroke-linejoin="bevel"/><ellipse id="shape016" transform="matrix(0.99999984199461 0 0 0.99999984199461 362.817207557957 444.582493221411)" rx="19.0002883251454" ry="17.4441435233168" cx="19.0002883251454" cy="17.4441435233168" fill="#454949" fill-rule="evenodd" stroke="#454949" stroke-width="3.6" stroke-linecap="square" stroke-linejoin="bevel"/><ellipse id="shape017" transform="matrix(0.999999825652517 0 0 0.999999825652517 415.047519830226 444.370628232382)" rx="19.0002883251454" ry="17.4441435233168" cx="19.0002883251454" cy="17.4441435233168" fill="#454949" fill-rule="evenodd" stroke="#454949" stroke-width="3.6" stroke-linecap="square" stroke-linejoin="bevel"/><ellipse id="shape018" transform="matrix(0.999999838513472 0 0 0.999999838513472 468.573843466886 445.065096399627)" rx="19.0002883251454" ry="17.4441435233168" cx="19.0002883251454" cy="17.4441435233168" fill="#454949" fill-rule="evenodd" stroke="#454949" stroke-width="3.6" stroke-linecap="square" stroke-linejoin="bevel"/><ellipse id="shape019" transform="matrix(0.999999848104161 0 0 0.999999848104161 472.883021853771 449.063046874245)" rx="19.0002883251454" ry="17.4441435233168" cx="19.0002883251454" cy="17.4441435233168" fill="#454949" fill-rule="evenodd" stroke="#454949" stroke-width="3.6" stroke-linecap="square" stroke-linejoin="bevel"/><path id="shape5" transform="translate(492.463841977995, 607.380187103081)" fill="none" stroke="#4a4f4f" stroke-width="3.6" stroke-linecap="square" stroke-linejoin="miter" stroke-miterlimit="2" d="M0.127279 0L0 22.6836"/><path id="shape6" transform="translate(527.778056952454, 606.286123633847)" fill="none" stroke="#4a4f4f" stroke-width="3.6" stroke-linecap="square" stroke-linejoin="miter" stroke-miterlimit="2" d="M0 0L0.223406 24.1399"/><path id="shape7" transform="translate(557.898748670256, 605.465757685273)" fill="none" stroke="#4a4f4f" stroke-width="3.6" stroke-linecap="square" stroke-linejoin="miter" stroke-miterlimit="2" d="M0.333346 0L0 24.6444"/><path id="shape8" transform="translate(586.492732076664, 604.450391799055)" fill="none" stroke="#4a4f4f" stroke-width="3.6" stroke-linecap="square" stroke-linejoin="miter" stroke-miterlimit="2" d="M0.551741 0L0 26.2032"/><path id="shape9" transform="matrix(0.704253415760406 -0.70994867870136 0.70994867870136 0.704253415760406 609.404871567422 605.359098745159)" fill="none" stroke="#4a4f4f" stroke-width="3.6" stroke-linecap="square" stroke-linejoin="miter" stroke-miterlimit="2" d="M0.649117 0L0 26.3193"/><path id="shape10" transform="translate(628.374470124431, 574.560285799105)" fill="none" stroke="#4a4f4f" stroke-width="3.6" stroke-linecap="square" stroke-linejoin="miter" stroke-miterlimit="2" d="M0 0L26.328 14.8316"/><path id="shape11" transform="translate(650.709063629419, 543.228520674967)" fill="none" stroke="#4a4f4f" stroke-width="3.6" stroke-linecap="square" stroke-linejoin="miter" stroke-miterlimit="2" d="M0 0L26.62 14.589"/><path id="shape12" transform="matrix(0.769407141767496 -0.638758679156054 0.638758679156054 0.769407141767496 665.242618919463 517.97508365311)" fill="none" stroke="#4a4f4f" stroke-width="3.6" stroke-linecap="square" stroke-linejoin="miter" stroke-miterlimit="2" d="M0 0L23.4574 12.1184"/><path id="shape13" transform="translate(650.356439023471, 484.410074637553)" fill="none" stroke="#4a4f4f" stroke-width="3.6" stroke-linecap="square" stroke-linejoin="miter" stroke-miterlimit="2" d="M0 9.83553L23.7579 0"/><path id="shape14" transform="translate(637.019684464869, 458.088044575534)" fill="none" stroke="#4a4f4f" stroke-width="3.6" stroke-linecap="square" stroke-linejoin="miter" stroke-miterlimit="2" d="M0 12.1051L23.8831 0"/><path id="shape15" transform="translate(623.275850487906, 436.643217193111)" fill="none" stroke="#4a4f4f" stroke-width="3.6" stroke-linecap="square" stroke-linejoin="miter" stroke-miterlimit="2" d="M0 12.5496L21.5243 0"/><path id="shape16" transform="matrix(0.785124064009286 -0.619338521419061 0.619338521419061 0.785124064009286 595.200848572746 425.397235340755)" fill="none" stroke="#4a4f4f" stroke-width="3.6" stroke-linecap="square" stroke-linejoin="miter" stroke-miterlimit="2" d="M0 17.5756L13.7571 0"/><path id="shape17" transform="translate(572.909205125553, 416.71886074426)" fill="none" stroke="#4a4f4f" stroke-width="3.6" stroke-linecap="square" stroke-linejoin="miter" stroke-miterlimit="2" d="M0.557802 21.884L0 0"/><path id="shape18" transform="translate(541.289411560701, 416.402898716859)" fill="none" stroke="#4a4f4f" stroke-width="3.6" stroke-linecap="square" stroke-linejoin="miter" stroke-miterlimit="2" d="M0.171413 21.7947L0 0"/><path id="shape19" transform="translate(510.917115017117, 417.508163993175)" fill="none" stroke="#4a4f4f" stroke-width="3.6" stroke-linecap="square" stroke-linejoin="miter" stroke-miterlimit="2" d="M0.127279 20.9572L0 0"/><path id="shape20" transform="translate(476.231548854106, 417.13372227682)" fill="none" stroke="#4a4f4f" stroke-width="3.6" stroke-linecap="square" stroke-linejoin="miter" stroke-miterlimit="2" d="M0.313109 20.8456L0 0"/><path id="shape21" transform="translate(439.175113878715, 417.248961571057)" fill="none" stroke="#4a4f4f" stroke-width="3.6" stroke-linecap="square" stroke-linejoin="miter" stroke-miterlimit="2" d="M0.740347 21.3826L0 0"/><path id="shape22" transform="translate(404.464253332059, 418.141636086563)" fill="none" stroke="#4a4f4f" stroke-width="3.6" stroke-linecap="square" stroke-linejoin="miter" stroke-miterlimit="2" d="M0.410965 19.8907L0 0"/><path id="shape23" transform="translate(371.035254105421, 417.976824660494)" fill="none" stroke="#4a4f4f" stroke-width="3.6" stroke-linecap="square" stroke-linejoin="miter" stroke-miterlimit="2" d="M0 19.8246L0 0"/><path id="shape24" transform="matrix(-1 0 0 1 339.934438077204 416.301763332134)" fill="none" stroke="#4a4f4f" stroke-width="3.6" stroke-linecap="square" stroke-linejoin="miter" stroke-miterlimit="2" d="M0 20.7962L0.127279 0"/><path id="shape25" transform="translate(307.146565414729, 416.752228636141)" fill="none" stroke="#4a4f4f" stroke-width="3.6" stroke-linecap="square" stroke-linejoin="miter" stroke-miterlimit="2" d="M0 21.5251L0.559111 0"/><path id="shape26" transform="translate(272.8939102421, 416.371422945254)" fill="none" stroke="#4a4f4f" stroke-width="3.6" stroke-linecap="square" stroke-linejoin="miter" stroke-miterlimit="2" d="M0.812868 21.2993C0.541912 14.1995 0.270956 7.09976 0 0"/><path id="shape27" transform="translate(238.56075585167, 416.761415060994)" fill="none" stroke="#4a4f4f" stroke-width="3.6" stroke-linecap="square" stroke-linejoin="miter" stroke-miterlimit="2" d="M0.358085 20.5981L0 0"/><path id="shape28" transform="translate(203.504625481074, 417.099310097366)" fill="none" stroke="#4a4f4f" stroke-width="3.6" stroke-linecap="square" stroke-linejoin="miter" stroke-miterlimit="2" d="M0.282628 20.9973L0 0"/><path id="shape29" transform="translate(163.041038468473, 435.108816488282)" fill="none" stroke="#4a4f4f" stroke-width="3.6" stroke-linecap="square" stroke-linejoin="miter" stroke-miterlimit="2" d="M21.3849 15.9231L0 0"/><path id="shape30" transform="translate(146.63292918789, 461.003601036468)" fill="none" stroke="#4a4f4f" stroke-width="3.6" stroke-linecap="square" stroke-linejoin="miter" stroke-miterlimit="2" d="M23.1286 14.4181L0 0"/><path id="shape31" transform="translate(129.606606649728, 488.477163890109)" fill="none" stroke="#4a4f4f" stroke-width="3.6" stroke-linecap="square" stroke-linejoin="miter" stroke-miterlimit="2" d="M24.3779 17.6067L0 0"/><path id="shape32" transform="matrix(0.884909459984895 -0.465763081007126 0.465763081007126 0.884909459984895 108.478265404799 521.85411146303)" fill="none" stroke="#4a4f4f" stroke-width="3.6" stroke-linecap="square" stroke-linejoin="miter" stroke-miterlimit="2" d="M29.375 18.4134L0 0"/><path id="shape33" transform="translate(128.046528134127, 544.941456525402)" fill="none" stroke="#4a4f4f" stroke-width="3.6" stroke-linecap="square" stroke-linejoin="miter" stroke-miterlimit="2" d="M26.3987 0L0 12.1942"/><path id="shape34" transform="translate(143.23275703002, 571.146149500752)" fill="none" stroke="#4a4f4f" stroke-width="3.6" stroke-linecap="square" stroke-linejoin="miter" stroke-miterlimit="2" d="M25.1363 0L0 12.4045"/><path id="shape35" transform="translate(158.691726853127, 595.898591315208)" fill="none" stroke="#4a4f4f" stroke-width="3.6" stroke-linecap="square" stroke-linejoin="miter" stroke-miterlimit="2" d="M23.8647 0L0 12.1435"/><path id="shape36" transform="matrix(0.785398983226758 -0.618989852215999 0.618989852215999 0.785398983226758 182.386136329128 615.511150875906)" fill="none" stroke="#4a4f4f" stroke-width="3.6" stroke-linecap="square" stroke-linejoin="miter" stroke-miterlimit="2" d="M13.3364 0L0 17.9561"/><path id="shape37" transform="translate(219.750243829923, 608.312008349211)" fill="none" stroke="#4a4f4f" stroke-width="3.6" stroke-linecap="square" stroke-linejoin="miter" stroke-miterlimit="2" d="M0.166423 0L0 21.8168"/><path id="shape38" transform="translate(252.045577801036, 607.935242879687)" fill="none" stroke="#4a4f4f" stroke-width="3.6" stroke-linecap="square" stroke-linejoin="miter" stroke-miterlimit="2" d="M0 0L0.403657 21.5527"/><path id="shape39" transform="translate(284.709565242247, 607.438337906062)" fill="none" stroke="#4a4f4f" stroke-width="3.6" stroke-linecap="square" stroke-linejoin="miter" stroke-miterlimit="2" d="M0 0L0.155867 21.8452"/><path id="shape40" transform="translate(319.355185322508, 607.460704718251)" fill="none" stroke="#4a4f4f" stroke-width="3.6" stroke-linecap="square" stroke-linejoin="miter" stroke-miterlimit="2" d="M0 0L0.36657 22.6634"/><path id="shape41" transform="translate(354.92341520952, 607.609311813677)" fill="none" stroke="#4a4f4f" stroke-width="3.6" stroke-linecap="square" stroke-linejoin="miter" stroke-miterlimit="2" d="M0 0L0 22.2501"/><path id="shape42" transform="translate(385.936440498461, 607.979075821314)" fill="none" stroke="#4a4f4f" stroke-width="3.6" stroke-linecap="square" stroke-linejoin="miter" stroke-miterlimit="2" d="M0 0L0.505079 21.5924"/><path id="shape43" transform="translate(422.461462316911, 607.135353282411)" fill="none" stroke="#4a4f4f" stroke-width="3.6" stroke-linecap="square" stroke-linejoin="miter" stroke-miterlimit="2" d="M0 0L0.352821 22.0461"/><path id="shape44" transform="translate(456.12507209363, 606.955364930429)" fill="none" stroke="#4a4f4f" stroke-width="3.6" stroke-linecap="square" stroke-linejoin="miter" stroke-miterlimit="2" d="M0.152735 0L0 23.1595"/>
</svg>
