<?xml version="1.0" standalone="no"?>
<!DOCTYPE svg PUBLIC "-//W3C//DTD SVG 20010904//EN" "http://www.w3.org/TR/2001/REC-SVG-20010904/DTD/svg10.dtd">
<!-- Created using Krita: http://krita.org -->
<svg xmlns="http://www.w3.org/2000/svg" xmlns:xlink="http://www.w3.org/1999/xlink" xmlns:krita="http://krita.org/namespaces/svg/krita" xmlns:sodipodi="http://sodipodi.sourceforge.net/DTD/sodipodi-0.dtd" width="2000pt" height="2000pt" viewBox="250 0 775 800">
    <defs/>
    <!-- Sprite de la roquette du tank joueur -->
    <svg id="roquette" viewBox="-1900 -600 3000 2000" x="246" y="-112" width="200" height="200">
        <g transform="rotate(-22)">
            <path id="shape0" transform="matrix(0.787664613934165 0.616104257375279 -0.616104257375279 0.787664613934165 327.0496355618 282.59964277459)" fill="#aca09f" fill-rule="evenodd" stroke="#aca09f" stroke-width="3.6" stroke-linecap="square" stroke-linejoin="bevel" d="M0.586286 81.7137L0 0.433459L24.192 0L23.0811 81.2802C22.9989 81.3152 15.5006 81.4597 0.586286 81.7137Z"/>
            <path id="shape1" transform="matrix(0.787664613934165 0.616104257375279 -0.616104257375279 0.787664613934165 351.442546212295 250.058144003927)" fill="#d4342e" fill-rule="evenodd" stroke="#d4342e" stroke-width="3.6" stroke-linecap="square" stroke-linejoin="bevel" d="M0 40.2911L12.6225 0L25.8122 40.0264C25.8122 40.0264 17.2082 40.1146 0 40.2911Z"/>
            <path id="shape2" transform="matrix(0.787664613934165 0.616104257375279 -0.616104257375279 0.787664613934165 271.843193399836 329.514032297938)" fill="#d4342e" fill-rule="evenodd" stroke="#d4342e" stroke-width="3.6" stroke-linecap="square" stroke-linejoin="bevel" d="M13.3611 0.70273L0 23.4068L26.0434 17.785L46.3166 23.2755L37.7691 0L25.4417 7.28343C25.4417 7.28343 21.4149 5.08987 13.3611 0.70273Z"/>
            <path id="shape3" transform="matrix(0.787664613934165 0.616104257375279 -0.616104257375279 0.787664613934165 302.217175408458 314.377878435972)" fill="none" stroke="#d4342e" stroke-width="3.6" stroke-linecap="square" stroke-linejoin="miter" stroke-miterlimit="2" d="M0 0L23.5103 0.127279"/>
            <path id="shape0" transform="matrix(0.787664617045528 0.616104259808959 -0.616104259808959 0.787664617045528 307.246112325962 307.904200428265)" fill="none" stroke="#d4342e" stroke-width="3.6" stroke-linecap="square" stroke-linejoin="miter" stroke-miterlimit="2" d="M0 0L23.5103 0.127279"/>
            <path id="shape01" transform="matrix(0.787664633412703 0.616104272611218 -0.616104272611218 0.787664633412703 312.667161202927 301.159430133511)" fill="none" stroke="#d4342e" stroke-width="3.6" stroke-linecap="square" stroke-linejoin="miter" stroke-miterlimit="2" d="M0 0L23.5103 0.127279"/>
        </g>
    </svg>
    <!-- Sprite de l'armement du tank joueur -->
    <svg id="armement" viewBox="-1900 -600 3000 2000" x="121" y="97" width="200" height="200">
        <g transform="rotate(-22)">
            <path id="shape0" transform="translate(556.362916698129, 336.750538394512)" fill="#324353" fill-rule="evenodd" stroke="#324353" stroke-width="3.6" stroke-linecap="square" stroke-linejoin="bevel" d="M0 0L20.7938 8.71209L23.3248 31.161L13.1352 39.6595C12.9316 39.7152 8.55316 26.4954 0 0Z"/>
            <path id="shape1" transform="translate(574.997150232884, 345.855896361242)" fill="#324353" fill-rule="evenodd" stroke="#324353" stroke-width="3.6" stroke-linecap="square" stroke-linejoin="bevel" d="M0 2.18043L117.273 0L117.859 20.0639L0.941143 19.9785C0.879429 19.9785 0.565714 14.0458 0 2.18043Z"/>
            <path id="shape2" transform="translate(250.121855518514, 331.422024211799)" fill="#99a3a1" fill-rule="evenodd" stroke="#99a3a1" stroke-width="3.6" stroke-linecap="square" stroke-linejoin="bevel" d="M0.0218193 61.338C-0.0654579 61.338 0.109096 40.892 0.545482 0L138.967 0.0650156L139.622 61.338C139.302 62.539 92.7684 62.539 0.0218193 61.338Z"/>
            <path id="shape3" transform="translate(415.730293617618, 308.444148247565)" fill="#374a5c" fill-rule="evenodd" stroke="#374a5c" stroke-width="3.6" stroke-linecap="square" stroke-linejoin="bevel" d="M0 84.4209L20.0301 21.9753L75.1893 0L136.589 18.0743L160.852 84.4209C160.852 85.9856 107.235 85.9856 0 84.4209Z"/>
            <path id="shape4" transform="translate(684.740616452252, 336.451400501033)" fill="#374a5c" fill-rule="evenodd" stroke="#374a5c" stroke-width="3.6" stroke-linecap="square" stroke-linejoin="bevel" d="M0 0.486L0.740571 35.235L13.932 35.4058L12.0497 0C12.0497 0 8.03314 0.162 0 0.486Z"/>
            <path id="shape5" transform="translate(578.867182398534, 344.547145157027)" fill="#374a5c" fill-rule="evenodd" stroke="#374a5c" stroke-width="3.6" stroke-linecap="square" stroke-linejoin="bevel" d="M0 0.26927L10.4837 0L12.3043 24.7072L2.17543 25.7744C2.17543 25.7022 1.45029 17.2005 0 0.26927Z"/>
            <path id="shape6" transform="translate(434.459298161472, 326.528900854618)" fill="#698eb2" fill-rule="evenodd" stroke="#698eb2" stroke-width="3.6" stroke-linecap="square" stroke-linejoin="bevel" d="M0 58.4397L25.4849 55.7555L32.1835 42.2137L27.3614 33.901L26.3141 22.5511L31.5943 12.7152L36.7437 3.77091L30.3288 0L22.7139 2.11765L15.6008 5.7771L9.05501 10.8112L4.58205 19.9226L1.74554 28.2539C1.48371 29.5666 0.901864 39.6286 0 58.4397Z"/>
        </g>
    </svg>
    <!-- Sprite 1 du tank joueur -->
    <svg id="tank1" viewBox="-1900 -600 3000 2000" x="10000" y="10000" width="200" height="200">
        <g transform="rotate(-22)">
            <path id="shape0" transform="translate(201.229701133669, 392.76)" fill="#515655" fill-rule="evenodd" stroke="#515655" stroke-width="3.6" stroke-linecap="square" stroke-linejoin="bevel" d="M0 33.1686L21.9703 0L402.994 0L415.399 31.6449C415.317 31.715 276.85 32.2229 0 33.1686Z"/>
            <path id="shape1" transform="translate(108.339425326923, 418.416798238151)" fill="#565c5b" fill-rule="evenodd" stroke="#565c5b" stroke-width="3.6" stroke-linecap="square" stroke-linejoin="bevel" d="M67.5771 0L522.751 1.53681L588.014 103.794L517.104 210.149L67.6697 209.361L0 104.582C0 104.424 22.5257 69.5637 67.5771 0Z"/>
            <path id="shape2" transform="translate(146.139424180207, 440.993175938152)" fill="#333736" fill-rule="evenodd" stroke="#333736" stroke-width="3.6" stroke-linecap="square" stroke-linejoin="bevel" d="M0 83.5657C25.2617 40.2373 41.4514 12.3821 48.5691 0L469.646 0.551676L517.968 78.6006L460.327 163.217L43.7554 164.399C43.7554 164.399 29.1703 137.455 0 83.5657Z"/>
            <ellipse id="shape3" transform="translate(218.921145646119, 489.549387998964)" rx="60.747421125017" ry="56.8527592409598" cx="60.747421125017" cy="56.8527592409598" fill="#4c5151" fill-rule="evenodd" stroke="#4c5151" stroke-width="3.6" stroke-linecap="square" stroke-linejoin="bevel"/>
            <ellipse id="shape0" transform="matrix(0.999999993015873 0 0 0.999999993015873 344.270026797539 491.23619987611)" rx="60.747421125017" ry="56.8527592409598" cx="60.747421125017" cy="56.8527592409598" fill="#4c5151" fill-rule="evenodd" stroke="#4c5151" stroke-width="3.6" stroke-linecap="square" stroke-linejoin="bevel"/>
            <ellipse id="shape01" transform="matrix(0.999999993015873 0 0 0.999999993015873 468.631480987733 488.509598772858)" rx="60.747421125017" ry="56.8527592409598" cx="60.747421125017" cy="56.8527592409598" fill="#4c5151" fill-rule="evenodd" stroke="#4c5151" stroke-width="3.6" stroke-linecap="square" stroke-linejoin="bevel"/>
            <ellipse id="shape02" transform="matrix(0.999999970796995 0 0 0.999999970796995 572.627210907526 451.326146114788)" rx="31.5149555944117" ry="31.0242128160551" cx="31.5149555944117" cy="31.0242128160551" fill="#4c5151" fill-rule="evenodd" stroke="#4c5151" stroke-width="3.6" stroke-linecap="square" stroke-linejoin="bevel"/>
            <ellipse id="shape03" transform="matrix(0.999999966206469 0 0 0.999999966206469 177.062187499796 448.609086299137)" rx="31.5149555944117" ry="31.0242128160551" cx="31.5149555944117" cy="31.0242128160551" fill="#4c5151" fill-rule="evenodd" stroke="#4c5151" stroke-width="3.6" stroke-linecap="square" stroke-linejoin="bevel"/>
            <ellipse id="shape4" transform="translate(225.007835390352, 497.743607817699)" rx="53.5227287919836" ry="49.8530330974517" cx="53.5227287919836" cy="49.8530330974517" fill="#454949" fill-rule="evenodd" stroke="#454949" stroke-width="3.6" stroke-linecap="square" stroke-linejoin="bevel"/>
            <ellipse id="shape04" transform="matrix(1.00000000291861 0 0 1.00000000291861 351.121902234128 497.700095151376)" rx="53.5227287919836" ry="49.8530330974517" cx="53.5227287919836" cy="49.8530330974517" fill="#454949" fill-rule="evenodd" stroke="#454949" stroke-width="3.6" stroke-linecap="square" stroke-linejoin="bevel"/>
            <ellipse id="shape05" transform="matrix(0.999999958969783 0 0 0.999999958969783 476.035895089538 495.306707598613)" rx="53.5227287919836" ry="49.8530330974517" cx="53.5227287919836" cy="49.8530330974517" fill="#454949" fill-rule="evenodd" stroke="#454949" stroke-width="3.6" stroke-linecap="square" stroke-linejoin="bevel"/>
            <ellipse id="shape06" transform="matrix(0.999999934790305 0 0 0.999999934790305 576.691220090389 456.20792751741)" rx="27.1322941675078" ry="26.0573252865029" cx="27.1322941675078" cy="26.0573252865029" fill="#454949" fill-rule="evenodd" stroke="#454949" stroke-width="3.6" stroke-linecap="square" stroke-linejoin="bevel"/>
            <ellipse id="shape07" transform="matrix(0.999999912329301 0 0 0.999999912329301 181.238125554068 453.72810203411)" rx="27.1322941675078" ry="26.0573252865029" cx="27.1322941675078" cy="26.0573252865029" fill="#454949" fill-rule="evenodd" stroke="#454949" stroke-width="3.6" stroke-linecap="square" stroke-linejoin="bevel"/>
            <ellipse id="shape08" transform="matrix(0.999999960497836 0 0 0.999999960497836 249.970298943849 440.958677163704)" rx="23.0674324418359" ry="21.587596843336" cx="23.0674324418359" cy="21.587596843336" fill="#4c5151" fill-rule="evenodd" stroke="#4c5151" stroke-width="3.6" stroke-linecap="square" stroke-linejoin="bevel"/>
            <ellipse id="shape09" transform="matrix(0.999999957227924 0 0 0.999999957227924 305.667761454927 439.638073979973)" rx="23.0674324418359" ry="21.587596843336" cx="23.0674324418359" cy="21.587596843336" fill="#4c5151" fill-rule="evenodd" stroke="#4c5151" stroke-width="3.6" stroke-linecap="square" stroke-linejoin="bevel"/>
            <ellipse id="shape010" transform="matrix(0.999999933484 0 0 0.999999933484 358.742360309988 440.366541555716)" rx="23.0674324418359" ry="21.587596843336" cx="23.0674324418359" cy="21.587596843336" fill="#4c5151" fill-rule="evenodd" stroke="#4c5151" stroke-width="3.6" stroke-linecap="square" stroke-linejoin="bevel"/>
            <ellipse id="shape011" transform="matrix(0.999999946539486 0 0 0.999999946539486 410.922117171251 439.899723516363)" rx="23.0674324418359" ry="21.587596843336" cx="23.0674324418359" cy="21.587596843336" fill="#4c5151" fill-rule="evenodd" stroke="#4c5151" stroke-width="3.6" stroke-linecap="square" stroke-linejoin="bevel"/>
            <ellipse id="shape012" transform="matrix(0.999999922103976 0 0 0.999999922103976 464.768141951542 440.904031969918)" rx="23.0674324418359" ry="21.587596843336" cx="23.0674324418359" cy="21.587596843336" fill="#4c5151" fill-rule="evenodd" stroke="#4c5151" stroke-width="3.6" stroke-linecap="square" stroke-linejoin="bevel"/>
            <ellipse id="shape013" transform="matrix(0.999999892561006 0 0 0.999999892561006 517.781020320755 440.266438071557)" rx="23.0674324418359" ry="21.587596843336" cx="23.0674324418359" cy="21.587596843336" fill="#4c5151" fill-rule="evenodd" stroke="#4c5151" stroke-width="3.6" stroke-linecap="square" stroke-linejoin="bevel"/>
            <ellipse id="shape014" transform="matrix(0.999999894894203 0 0 0.999999894894203 253.805151056518 445.676122506027)" rx="19.0002883251454" ry="17.4441435233168" cx="19.0002883251454" cy="17.4441435233168" fill="#454949" fill-rule="evenodd" stroke="#454949" stroke-width="3.6" stroke-linecap="square" stroke-linejoin="bevel"/>
            <ellipse id="shape015" transform="matrix(0.999999850105526 0 0 0.999999850105526 309.383458103915 444.170443876357)" rx="19.0002883251454" ry="17.4441435233168" cx="19.0002883251454" cy="17.4441435233168" fill="#454949" fill-rule="evenodd" stroke="#454949" stroke-width="3.6" stroke-linecap="square" stroke-linejoin="bevel"/>
            <ellipse id="shape016" transform="matrix(0.99999984199461 0 0 0.99999984199461 362.817207557957 444.582493221411)" rx="19.0002883251454" ry="17.4441435233168" cx="19.0002883251454" cy="17.4441435233168" fill="#454949" fill-rule="evenodd" stroke="#454949" stroke-width="3.6" stroke-linecap="square" stroke-linejoin="bevel"/>
            <ellipse id="shape017" transform="matrix(0.999999825652517 0 0 0.999999825652517 415.047519830226 444.370628232382)" rx="19.0002883251454" ry="17.4441435233168" cx="19.0002883251454" cy="17.4441435233168" fill="#454949" fill-rule="evenodd" stroke="#454949" stroke-width="3.6" stroke-linecap="square" stroke-linejoin="bevel"/>
            <ellipse id="shape018" transform="matrix(0.999999838513472 0 0 0.999999838513472 468.573843466886 445.065096399627)" rx="19.0002883251454" ry="17.4441435233168" cx="19.0002883251454" cy="17.4441435233168" fill="#454949" fill-rule="evenodd" stroke="#454949" stroke-width="3.6" stroke-linecap="square" stroke-linejoin="bevel"/>
            <ellipse id="shape019" transform="matrix(0.999999848104161 0 0 0.999999848104161 472.883021853771 449.063046874245)" rx="19.0002883251454" ry="17.4441435233168" cx="19.0002883251454" cy="17.4441435233168" fill="#454949" fill-rule="evenodd" stroke="#454949" stroke-width="3.6" stroke-linecap="square" stroke-linejoin="bevel"/>
            <path id="shape5" transform="translate(479.437722411117, 606.804334608307)" fill="none" stroke="#4a4f4f" stroke-width="3.6" stroke-linecap="square" stroke-linejoin="miter" stroke-miterlimit="2" d="M0.127279 0L0 22.6836"/>
            <path id="shape6" transform="translate(510.017151500799, 605.700983238257)" fill="none" stroke="#4a4f4f" stroke-width="3.6" stroke-linecap="square" stroke-linejoin="miter" stroke-miterlimit="2" d="M0 0L0.223406 24.1399"/>
            <path id="shape7" transform="translate(538.806866274434, 605.21498323002)" fill="none" stroke="#4a4f4f" stroke-width="3.6" stroke-linecap="square" stroke-linejoin="miter" stroke-miterlimit="2" d="M0.333346 0L0 24.6444"/>
            <path id="shape8" transform="translate(567.226295327509, 603.809523746741)" fill="none" stroke="#4a4f4f" stroke-width="3.6" stroke-linecap="square" stroke-linejoin="miter" stroke-miterlimit="2" d="M0.551741 0L0 26.2032"/>
            <path id="shape9" transform="translate(598.206867281132, 603.809523746741)" fill="none" stroke="#4a4f4f" stroke-width="3.6" stroke-linecap="square" stroke-linejoin="miter" stroke-miterlimit="2" d="M0.649117 0L0 26.3193"/>
            <path id="shape10" transform="translate(617.770296184117, 589.058766739992)" fill="none" stroke="#4a4f4f" stroke-width="3.6" stroke-linecap="square" stroke-linejoin="miter" stroke-miterlimit="2" d="M0 0L26.328 14.8316"/>
            <path id="shape11" transform="translate(635.173725050495, 562.092333850538)" fill="none" stroke="#4a4f4f" stroke-width="3.6" stroke-linecap="square" stroke-linejoin="miter" stroke-miterlimit="2" d="M0 0L26.62 14.589"/>
            <path id="shape12" transform="translate(655.323439677702, 535.559360427891)" fill="none" stroke="#4a4f4f" stroke-width="3.6" stroke-linecap="square" stroke-linejoin="miter" stroke-miterlimit="2" d="M0 0L24.6458 13.3092"/>
            <path id="shape13" transform="translate(661.309725493442, 500.859022512461)" fill="none" stroke="#4a4f4f" stroke-width="3.6" stroke-linecap="square" stroke-linejoin="miter" stroke-miterlimit="2" d="M0 9.83553L23.7579 0"/>
            <path id="shape14" transform="translate(646.467439527613, 477.48127052856)" fill="none" stroke="#4a4f4f" stroke-width="3.6" stroke-linecap="square" stroke-linejoin="miter" stroke-miterlimit="2" d="M0 12.1051L23.8831 0"/>
            <path id="shape15" transform="translate(631.501724988263, 449.098349378459)" fill="none" stroke="#4a4f4f" stroke-width="3.6" stroke-linecap="square" stroke-linejoin="miter" stroke-miterlimit="2" d="M0 12.5496L21.5243 0"/>
            <path id="shape16" transform="translate(616.104010441592, 419.246901275058)" fill="none" stroke="#4a4f4f" stroke-width="3.6" stroke-linecap="square" stroke-linejoin="miter" stroke-miterlimit="2" d="M0 21.3586L15.8555 0"/>
            <path id="shape17" transform="translate(589.502779860805, 417.670702985056)" fill="none" stroke="#4a4f4f" stroke-width="3.6" stroke-linecap="square" stroke-linejoin="miter" stroke-miterlimit="2" d="M0.557802 21.884L0 0"/>
            <path id="shape18" transform="translate(556.872025450448, 417.47101221523)" fill="none" stroke="#4a4f4f" stroke-width="3.6" stroke-linecap="square" stroke-linejoin="miter" stroke-miterlimit="2" d="M0.171413 21.7947L0 0"/>
            <path id="shape19" transform="translate(528.805301176891, 417.415284558534)" fill="none" stroke="#4a4f4f" stroke-width="3.6" stroke-linecap="square" stroke-linejoin="miter" stroke-miterlimit="2" d="M0.127279 20.9572L0 0"/>
            <path id="shape20" transform="translate(498.101756641154, 417.605687385578)" fill="none" stroke="#4a4f4f" stroke-width="3.6" stroke-linecap="square" stroke-linejoin="miter" stroke-miterlimit="2" d="M0.313109 20.8456L0 0"/>
            <path id="shape21" transform="translate(463.114518461945, 417.633551213926)" fill="none" stroke="#4a4f4f" stroke-width="3.6" stroke-linecap="square" stroke-linejoin="miter" stroke-miterlimit="2" d="M0.740347 21.3826L0 0"/>
            <path id="shape22" transform="translate(431.105613935034, 417.995780982449)" fill="none" stroke="#4a4f4f" stroke-width="3.6" stroke-linecap="square" stroke-linejoin="miter" stroke-miterlimit="2" d="M0.410965 19.8907L0 0"/>
            <path id="shape23" transform="translate(392.76, 417.304308770239)" fill="none" stroke="#4a4f4f" stroke-width="3.6" stroke-linecap="square" stroke-linejoin="miter" stroke-miterlimit="2" d="M0 19.8246L0 0"/>
            <path id="shape24" transform="matrix(-1 0 0 1 358.553571004724 417.145934217837)" fill="none" stroke="#4a4f4f" stroke-width="3.6" stroke-linecap="square" stroke-linejoin="miter" stroke-miterlimit="2" d="M0 20.7962L0.127279 0"/>
            <path id="shape25" transform="translate(325.282037278241, 416.518998080009)" fill="none" stroke="#4a4f4f" stroke-width="3.6" stroke-linecap="square" stroke-linejoin="miter" stroke-miterlimit="2" d="M0 21.5251L0.559111 0"/>
            <path id="shape26" transform="translate(287.752851329853, 416.639741336184)" fill="none" stroke="#4a4f4f" stroke-width="3.6" stroke-linecap="square" stroke-linejoin="miter" stroke-miterlimit="2" d="M0.812868 21.2993L0 0"/>
            <path id="shape27" transform="translate(251.641919501607, 416.881227848532)" fill="none" stroke="#4a4f4f" stroke-width="3.6" stroke-linecap="square" stroke-linejoin="miter" stroke-miterlimit="2" d="M0.358085 20.5981L0 0"/>
            <path id="shape28" transform="translate(213.454518179511, 417.020546990272)" fill="none" stroke="#4a4f4f" stroke-width="3.6" stroke-linecap="square" stroke-linejoin="miter" stroke-miterlimit="2" d="M0.282628 20.9973L0 0"/>
            <path id="shape29" transform="translate(170.721430574907, 422.449349546724)" fill="none" stroke="#4a4f4f" stroke-width="3.6" stroke-linecap="square" stroke-linejoin="miter" stroke-miterlimit="2" d="M21.3849 15.9231L0 0"/>
            <path id="shape30" transform="translate(155.338828194899, 447.387475918108)" fill="none" stroke="#4a4f4f" stroke-width="3.6" stroke-linecap="square" stroke-linejoin="miter" stroke-miterlimit="2" d="M23.1286 14.4181L0 0"/>
            <path id="shape31" transform="translate(138.29068636098, 473.4771351956)" fill="none" stroke="#4a4f4f" stroke-width="3.6" stroke-linecap="square" stroke-linejoin="miter" stroke-miterlimit="2" d="M24.3779 17.6067L0 0"/>
            <path id="shape32" transform="translate(121.315275507581, 499.571610443423)" fill="none" stroke="#4a4f4f" stroke-width="3.6" stroke-linecap="square" stroke-linejoin="miter" stroke-miterlimit="2" d="M26.1407 16.2982L0 0"/>
            <path id="shape33" transform="translate(122.875355039738, 536.860945711642)" fill="none" stroke="#4a4f4f" stroke-width="3.6" stroke-linecap="square" stroke-linejoin="miter" stroke-miterlimit="2" d="M26.3987 0L0 12.1942"/>
            <path id="shape34" transform="translate(135.836015768426, 558.486682559194)" fill="none" stroke="#4a4f4f" stroke-width="3.6" stroke-linecap="square" stroke-linejoin="miter" stroke-miterlimit="2" d="M25.1363 0L0 12.4045"/>
            <path id="shape35" transform="translate(152.473227562406, 585.616837900458)" fill="none" stroke="#4a4f4f" stroke-width="3.6" stroke-linecap="square" stroke-linejoin="miter" stroke-miterlimit="2" d="M23.8647 0L0 12.1435"/>
            <path id="shape36" transform="translate(171.445103831083, 605.425145395744)" fill="none" stroke="#4a4f4f" stroke-width="3.6" stroke-linecap="square" stroke-linejoin="miter" stroke-miterlimit="2" d="M15.1069 0L0 19.781"/>
            <path id="shape37" transform="translate(207.509618910293, 607.949778554111)" fill="none" stroke="#4a4f4f" stroke-width="3.6" stroke-linecap="square" stroke-linejoin="miter" stroke-miterlimit="2" d="M0.166423 0L0 21.8168"/>
            <path id="shape38" transform="translate(233.542814999172, 607.953818766615)" fill="none" stroke="#4a4f4f" stroke-width="3.6" stroke-linecap="square" stroke-linejoin="miter" stroke-miterlimit="2" d="M0 0L0.403657 21.5527"/>
            <path id="shape39" transform="translate(267.494140890041, 607.930598909659)" fill="none" stroke="#4a4f4f" stroke-width="3.6" stroke-linecap="square" stroke-linejoin="miter" stroke-miterlimit="2" d="M0 0L0.155867 21.8452"/>
            <path id="shape40" transform="translate(301.834290829705, 607.237794075113)" fill="none" stroke="#4a4f4f" stroke-width="3.6" stroke-linecap="square" stroke-linejoin="miter" stroke-miterlimit="2" d="M0 0L0.36657 22.6634"/>
            <path id="shape41" transform="translate(339.017148602729, 607.237794075113)" fill="none" stroke="#4a4f4f" stroke-width="3.6" stroke-linecap="square" stroke-linejoin="miter" stroke-miterlimit="2" d="M0 0L0 22.2501"/>
            <path id="shape42" transform="translate(375.39772064787, 607.802604895496)" fill="none" stroke="#4a4f4f" stroke-width="3.6" stroke-linecap="square" stroke-linejoin="miter" stroke-miterlimit="2" d="M0 0L0.505079 21.5924"/>
            <path id="shape43" transform="translate(409.217149792463, 607.395415699406)" fill="none" stroke="#4a4f4f" stroke-width="3.6" stroke-linecap="square" stroke-linejoin="miter" stroke-miterlimit="2" d="M0 0L0.352821 22.0461"/>
            <path id="shape44" transform="translate(444.408110272167, 606.778894004611)" fill="none" stroke="#4a4f4f" stroke-width="3.6" stroke-linecap="square" stroke-linejoin="miter" stroke-miterlimit="2" d="M0.152735 0L0 23.1595"/>
        </g>
    </svg>
    <!-- Sprite 2 du tank joueur -->
    <svg id="tank2" viewBox="-1900 -600 3000 2000" x="121" y="97" width="200" height="200">
        <g transform="rotate(-22)">
            <path id="shape0" transform="translate(201.229701133669, 392.76)" fill="#515655" fill-rule="evenodd" stroke="#515655" stroke-width="3.6" stroke-linecap="square" stroke-linejoin="bevel" d="M0 33.1686L21.9703 0L402.994 0L415.399 31.6449C415.317 31.715 276.85 32.2229 0 33.1686Z"/>
            <path id="shape1" transform="translate(108.339425326923, 418.416798238151)" fill="#565c5b" fill-rule="evenodd" stroke="#565c5b" stroke-width="3.6" stroke-linecap="square" stroke-linejoin="bevel" d="M67.5771 0L522.751 1.53681L588.014 103.794L517.104 210.149L67.6697 209.361L0 104.582C0 104.424 22.5257 69.5637 67.5771 0Z"/>
            <path id="shape2" transform="translate(146.139424180207, 440.993175938152)" fill="#333736" fill-rule="evenodd" stroke="#333736" stroke-width="3.6" stroke-linecap="square" stroke-linejoin="bevel" d="M0 83.5657C25.2617 40.2373 41.4514 12.3821 48.5691 0L469.646 0.551676L517.968 78.6006L460.327 163.217L43.7554 164.399C43.7554 164.399 29.1703 137.455 0 83.5657Z"/>
            <ellipse id="shape3" transform="translate(218.921145646119, 489.549387998964)" rx="60.747421125017" ry="56.8527592409598" cx="60.747421125017" cy="56.8527592409598" fill="#4c5151" fill-rule="evenodd" stroke="#4c5151" stroke-width="3.6" stroke-linecap="square" stroke-linejoin="bevel"/>
            <ellipse id="shape0" transform="matrix(0.999999993015873 0 0 0.999999993015873 344.270026797539 491.23619987611)" rx="60.747421125017" ry="56.8527592409598" cx="60.747421125017" cy="56.8527592409598" fill="#4c5151" fill-rule="evenodd" stroke="#4c5151" stroke-width="3.6" stroke-linecap="square" stroke-linejoin="bevel"/>
            <ellipse id="shape01" transform="matrix(0.999999993015873 0 0 0.999999993015873 468.631480987733 488.509598772858)" rx="60.747421125017" ry="56.8527592409598" cx="60.747421125017" cy="56.8527592409598" fill="#4c5151" fill-rule="evenodd" stroke="#4c5151" stroke-width="3.6" stroke-linecap="square" stroke-linejoin="bevel"/>
            <ellipse id="shape02" transform="matrix(0.999999970796995 0 0 0.999999970796995 572.627210907526 451.326146114788)" rx="31.5149555944117" ry="31.0242128160551" cx="31.5149555944117" cy="31.0242128160551" fill="#4c5151" fill-rule="evenodd" stroke="#4c5151" stroke-width="3.6" stroke-linecap="square" stroke-linejoin="bevel"/>
            <ellipse id="shape03" transform="matrix(0.999999966206469 0 0 0.999999966206469 177.062187499796 448.609086299137)" rx="31.5149555944117" ry="31.0242128160551" cx="31.5149555944117" cy="31.0242128160551" fill="#4c5151" fill-rule="evenodd" stroke="#4c5151" stroke-width="3.6" stroke-linecap="square" stroke-linejoin="bevel"/>
            <ellipse id="shape4" transform="translate(225.007835390352, 497.743607817699)" rx="53.5227287919836" ry="49.8530330974517" cx="53.5227287919836" cy="49.8530330974517" fill="#454949" fill-rule="evenodd" stroke="#454949" stroke-width="3.6" stroke-linecap="square" stroke-linejoin="bevel"/>
            <ellipse id="shape04" transform="matrix(1.00000000291861 0 0 1.00000000291861 351.121902234128 497.700095151376)" rx="53.5227287919836" ry="49.8530330974517" cx="53.5227287919836" cy="49.8530330974517" fill="#454949" fill-rule="evenodd" stroke="#454949" stroke-width="3.6" stroke-linecap="square" stroke-linejoin="bevel"/>
            <ellipse id="shape05" transform="matrix(0.999999958969783 0 0 0.999999958969783 476.035895089538 495.306707598613)" rx="53.5227287919836" ry="49.8530330974517" cx="53.5227287919836" cy="49.8530330974517" fill="#454949" fill-rule="evenodd" stroke="#454949" stroke-width="3.6" stroke-linecap="square" stroke-linejoin="bevel"/>
            <ellipse id="shape06" transform="matrix(0.999999934790305 0 0 0.999999934790305 576.691220090389 456.20792751741)" rx="27.1322941675078" ry="26.0573252865029" cx="27.1322941675078" cy="26.0573252865029" fill="#454949" fill-rule="evenodd" stroke="#454949" stroke-width="3.6" stroke-linecap="square" stroke-linejoin="bevel"/>
            <ellipse id="shape07" transform="matrix(0.999999912329301 0 0 0.999999912329301 181.238125554068 453.72810203411)" rx="27.1322941675078" ry="26.0573252865029" cx="27.1322941675078" cy="26.0573252865029" fill="#454949" fill-rule="evenodd" stroke="#454949" stroke-width="3.6" stroke-linecap="square" stroke-linejoin="bevel"/>
            <ellipse id="shape08" transform="matrix(0.999999960497836 0 0 0.999999960497836 249.970298943849 440.958677163704)" rx="23.0674324418359" ry="21.587596843336" cx="23.0674324418359" cy="21.587596843336" fill="#4c5151" fill-rule="evenodd" stroke="#4c5151" stroke-width="3.6" stroke-linecap="square" stroke-linejoin="bevel"/>
            <ellipse id="shape09" transform="matrix(0.999999957227924 0 0 0.999999957227924 305.667761454927 439.638073979973)" rx="23.0674324418359" ry="21.587596843336" cx="23.0674324418359" cy="21.587596843336" fill="#4c5151" fill-rule="evenodd" stroke="#4c5151" stroke-width="3.6" stroke-linecap="square" stroke-linejoin="bevel"/>
            <ellipse id="shape010" transform="matrix(0.999999933484 0 0 0.999999933484 358.742360309988 440.366541555716)" rx="23.0674324418359" ry="21.587596843336" cx="23.0674324418359" cy="21.587596843336" fill="#4c5151" fill-rule="evenodd" stroke="#4c5151" stroke-width="3.6" stroke-linecap="square" stroke-linejoin="bevel"/>
            <ellipse id="shape011" transform="matrix(0.999999946539486 0 0 0.999999946539486 410.922117171251 439.899723516363)" rx="23.0674324418359" ry="21.587596843336" cx="23.0674324418359" cy="21.587596843336" fill="#4c5151" fill-rule="evenodd" stroke="#4c5151" stroke-width="3.6" stroke-linecap="square" stroke-linejoin="bevel"/>
            <ellipse id="shape012" transform="matrix(0.999999922103976 0 0 0.999999922103976 464.768141951542 440.904031969918)" rx="23.0674324418359" ry="21.587596843336" cx="23.0674324418359" cy="21.587596843336" fill="#4c5151" fill-rule="evenodd" stroke="#4c5151" stroke-width="3.6" stroke-linecap="square" stroke-linejoin="bevel"/>
            <ellipse id="shape013" transform="matrix(0.999999892561006 0 0 0.999999892561006 517.781020320755 440.266438071557)" rx="23.0674324418359" ry="21.587596843336" cx="23.0674324418359" cy="21.587596843336" fill="#4c5151" fill-rule="evenodd" stroke="#4c5151" stroke-width="3.6" stroke-linecap="square" stroke-linejoin="bevel"/>
            <ellipse id="shape014" transform="matrix(0.999999894894203 0 0 0.999999894894203 253.805151056518 445.676122506027)" rx="19.0002883251454" ry="17.4441435233168" cx="19.0002883251454" cy="17.4441435233168" fill="#454949" fill-rule="evenodd" stroke="#454949" stroke-width="3.6" stroke-linecap="square" stroke-linejoin="bevel"/>
            <ellipse id="shape015" transform="matrix(0.999999850105526 0 0 0.999999850105526 309.383458103915 444.170443876357)" rx="19.0002883251454" ry="17.4441435233168" cx="19.0002883251454" cy="17.4441435233168" fill="#454949" fill-rule="evenodd" stroke="#454949" stroke-width="3.6" stroke-linecap="square" stroke-linejoin="bevel"/>
            <ellipse id="shape016" transform="matrix(0.99999984199461 0 0 0.99999984199461 362.817207557957 444.582493221411)" rx="19.0002883251454" ry="17.4441435233168" cx="19.0002883251454" cy="17.4441435233168" fill="#454949" fill-rule="evenodd" stroke="#454949" stroke-width="3.6" stroke-linecap="square" stroke-linejoin="bevel"/>
            <ellipse id="shape017" transform="matrix(0.999999825652517 0 0 0.999999825652517 415.047519830226 444.370628232382)" rx="19.0002883251454" ry="17.4441435233168" cx="19.0002883251454" cy="17.4441435233168" fill="#454949" fill-rule="evenodd" stroke="#454949" stroke-width="3.6" stroke-linecap="square" stroke-linejoin="bevel"/>
            <ellipse id="shape018" transform="matrix(0.999999838513472 0 0 0.999999838513472 468.573843466886 445.065096399627)" rx="19.0002883251454" ry="17.4441435233168" cx="19.0002883251454" cy="17.4441435233168" fill="#454949" fill-rule="evenodd" stroke="#454949" stroke-width="3.6" stroke-linecap="square" stroke-linejoin="bevel"/>
            <ellipse id="shape019" transform="matrix(0.999999848104161 0 0 0.999999848104161 472.883021853771 449.063046874245)" rx="19.0002883251454" ry="17.4441435233168" cx="19.0002883251454" cy="17.4441435233168" fill="#454949" fill-rule="evenodd" stroke="#454949" stroke-width="3.6" stroke-linecap="square" stroke-linejoin="bevel"/>
            <path id="shape5" transform="translate(492.463841977995, 607.380187103081)" fill="none" stroke="#4a4f4f" stroke-width="3.6" stroke-linecap="square" stroke-linejoin="miter" stroke-miterlimit="2" d="M0.127279 0L0 22.6836"/>
            <path id="shape6" transform="translate(527.778056952454, 606.286123633847)" fill="none" stroke="#4a4f4f" stroke-width="3.6" stroke-linecap="square" stroke-linejoin="miter" stroke-miterlimit="2" d="M0 0L0.223406 24.1399"/>
            <path id="shape7" transform="translate(557.898748670256, 605.465757685273)" fill="none" stroke="#4a4f4f" stroke-width="3.6" stroke-linecap="square" stroke-linejoin="miter" stroke-miterlimit="2" d="M0.333346 0L0 24.6444"/>
            <path id="shape8" transform="translate(586.492732076664, 604.450391799055)" fill="none" stroke="#4a4f4f" stroke-width="3.6" stroke-linecap="square" stroke-linejoin="miter" stroke-miterlimit="2" d="M0.551741 0L0 26.2032"/>
            <path id="shape9" transform="matrix(0.704253415760406 -0.70994867870136 0.70994867870136 0.704253415760406 609.404871567422 605.359098745159)" fill="none" stroke="#4a4f4f" stroke-width="3.6" stroke-linecap="square" stroke-linejoin="miter" stroke-miterlimit="2" d="M0.649117 0L0 26.3193"/>
            <path id="shape10" transform="translate(628.374470124431, 574.560285799105)" fill="none" stroke="#4a4f4f" stroke-width="3.6" stroke-linecap="square" stroke-linejoin="miter" stroke-miterlimit="2" d="M0 0L26.328 14.8316"/>
            <path id="shape11" transform="translate(650.709063629419, 543.228520674967)" fill="none" stroke="#4a4f4f" stroke-width="3.6" stroke-linecap="square" stroke-linejoin="miter" stroke-miterlimit="2" d="M0 0L26.62 14.589"/>
            <path id="shape12" transform="matrix(0.769407141767496 -0.638758679156054 0.638758679156054 0.769407141767496 665.242618919463 517.97508365311)" fill="none" stroke="#4a4f4f" stroke-width="3.6" stroke-linecap="square" stroke-linejoin="miter" stroke-miterlimit="2" d="M0 0L23.4574 12.1184"/>
            <path id="shape13" transform="translate(650.356439023471, 484.410074637553)" fill="none" stroke="#4a4f4f" stroke-width="3.6" stroke-linecap="square" stroke-linejoin="miter" stroke-miterlimit="2" d="M0 9.83553L23.7579 0"/>
            <path id="shape14" transform="translate(637.019684464869, 458.088044575534)" fill="none" stroke="#4a4f4f" stroke-width="3.6" stroke-linecap="square" stroke-linejoin="miter" stroke-miterlimit="2" d="M0 12.1051L23.8831 0"/>
            <path id="shape15" transform="translate(623.275850487906, 436.643217193111)" fill="none" stroke="#4a4f4f" stroke-width="3.6" stroke-linecap="square" stroke-linejoin="miter" stroke-miterlimit="2" d="M0 12.5496L21.5243 0"/>
            <path id="shape16" transform="matrix(0.785124064009286 -0.619338521419061 0.619338521419061 0.785124064009286 595.200848572746 425.397235340755)" fill="none" stroke="#4a4f4f" stroke-width="3.6" stroke-linecap="square" stroke-linejoin="miter" stroke-miterlimit="2" d="M0 17.5756L13.7571 0"/>
            <path id="shape17" transform="translate(572.909205125553, 416.71886074426)" fill="none" stroke="#4a4f4f" stroke-width="3.6" stroke-linecap="square" stroke-linejoin="miter" stroke-miterlimit="2" d="M0.557802 21.884L0 0"/>
            <path id="shape18" transform="translate(541.289411560701, 416.402898716859)" fill="none" stroke="#4a4f4f" stroke-width="3.6" stroke-linecap="square" stroke-linejoin="miter" stroke-miterlimit="2" d="M0.171413 21.7947L0 0"/>
            <path id="shape19" transform="translate(510.917115017117, 417.508163993175)" fill="none" stroke="#4a4f4f" stroke-width="3.6" stroke-linecap="square" stroke-linejoin="miter" stroke-miterlimit="2" d="M0.127279 20.9572L0 0"/>
            <path id="shape20" transform="translate(476.231548854106, 417.13372227682)" fill="none" stroke="#4a4f4f" stroke-width="3.6" stroke-linecap="square" stroke-linejoin="miter" stroke-miterlimit="2" d="M0.313109 20.8456L0 0"/>
            <path id="shape21" transform="translate(439.175113878715, 417.248961571057)" fill="none" stroke="#4a4f4f" stroke-width="3.6" stroke-linecap="square" stroke-linejoin="miter" stroke-miterlimit="2" d="M0.740347 21.3826L0 0"/>
            <path id="shape22" transform="translate(404.464253332059, 418.141636086563)" fill="none" stroke="#4a4f4f" stroke-width="3.6" stroke-linecap="square" stroke-linejoin="miter" stroke-miterlimit="2" d="M0.410965 19.8907L0 0"/>
            <path id="shape23" transform="translate(371.035254105421, 417.976824660494)" fill="none" stroke="#4a4f4f" stroke-width="3.6" stroke-linecap="square" stroke-linejoin="miter" stroke-miterlimit="2" d="M0 19.8246L0 0"/>
            <path id="shape24" transform="matrix(-1 0 0 1 339.934438077204 416.301763332134)" fill="none" stroke="#4a4f4f" stroke-width="3.6" stroke-linecap="square" stroke-linejoin="miter" stroke-miterlimit="2" d="M0 20.7962L0.127279 0"/>
            <path id="shape25" transform="translate(307.146565414729, 416.752228636141)" fill="none" stroke="#4a4f4f" stroke-width="3.6" stroke-linecap="square" stroke-linejoin="miter" stroke-miterlimit="2" d="M0 21.5251L0.559111 0"/>
            <path id="shape26" transform="translate(272.8939102421, 416.371422945254)" fill="none" stroke="#4a4f4f" stroke-width="3.6" stroke-linecap="square" stroke-linejoin="miter" stroke-miterlimit="2" d="M0.812868 21.2993C0.541912 14.1995 0.270956 7.09976 0 0"/>
            <path id="shape27" transform="translate(238.56075585167, 416.761415060994)" fill="none" stroke="#4a4f4f" stroke-width="3.6" stroke-linecap="square" stroke-linejoin="miter" stroke-miterlimit="2" d="M0.358085 20.5981L0 0"/>
            <path id="shape28" transform="translate(203.504625481074, 417.099310097366)" fill="none" stroke="#4a4f4f" stroke-width="3.6" stroke-linecap="square" stroke-linejoin="miter" stroke-miterlimit="2" d="M0.282628 20.9973L0 0"/>
            <path id="shape29" transform="translate(163.041038468473, 435.108816488282)" fill="none" stroke="#4a4f4f" stroke-width="3.6" stroke-linecap="square" stroke-linejoin="miter" stroke-miterlimit="2" d="M21.3849 15.9231L0 0"/>
            <path id="shape30" transform="translate(146.63292918789, 461.003601036468)" fill="none" stroke="#4a4f4f" stroke-width="3.6" stroke-linecap="square" stroke-linejoin="miter" stroke-miterlimit="2" d="M23.1286 14.4181L0 0"/>
            <path id="shape31" transform="translate(129.606606649728, 488.477163890109)" fill="none" stroke="#4a4f4f" stroke-width="3.6" stroke-linecap="square" stroke-linejoin="miter" stroke-miterlimit="2" d="M24.3779 17.6067L0 0"/>
            <path id="shape32" transform="matrix(0.884909459984895 -0.465763081007126 0.465763081007126 0.884909459984895 108.478265404799 521.85411146303)" fill="none" stroke="#4a4f4f" stroke-width="3.6" stroke-linecap="square" stroke-linejoin="miter" stroke-miterlimit="2" d="M29.375 18.4134L0 0"/>
            <path id="shape33" transform="translate(128.046528134127, 544.941456525402)" fill="none" stroke="#4a4f4f" stroke-width="3.6" stroke-linecap="square" stroke-linejoin="miter" stroke-miterlimit="2" d="M26.3987 0L0 12.1942"/>
            <path id="shape34" transform="translate(143.23275703002, 571.146149500752)" fill="none" stroke="#4a4f4f" stroke-width="3.6" stroke-linecap="square" stroke-linejoin="miter" stroke-miterlimit="2" d="M25.1363 0L0 12.4045"/>
            <path id="shape35" transform="translate(158.691726853127, 595.898591315208)" fill="none" stroke="#4a4f4f" stroke-width="3.6" stroke-linecap="square" stroke-linejoin="miter" stroke-miterlimit="2" d="M23.8647 0L0 12.1435"/>
            <path id="shape36" transform="matrix(0.785398983226758 -0.618989852215999 0.618989852215999 0.785398983226758 182.386136329128 615.511150875906)" fill="none" stroke="#4a4f4f" stroke-width="3.6" stroke-linecap="square" stroke-linejoin="miter" stroke-miterlimit="2" d="M13.3364 0L0 17.9561"/>
            <path id="shape37" transform="translate(219.750243829923, 608.312008349211)" fill="none" stroke="#4a4f4f" stroke-width="3.6" stroke-linecap="square" stroke-linejoin="miter" stroke-miterlimit="2" d="M0.166423 0L0 21.8168"/>
            <path id="shape38" transform="translate(252.045577801036, 607.935242879687)" fill="none" stroke="#4a4f4f" stroke-width="3.6" stroke-linecap="square" stroke-linejoin="miter" stroke-miterlimit="2" d="M0 0L0.403657 21.5527"/>
            <path id="shape39" transform="translate(284.709565242247, 607.438337906062)" fill="none" stroke="#4a4f4f" stroke-width="3.6" stroke-linecap="square" stroke-linejoin="miter" stroke-miterlimit="2" d="M0 0L0.155867 21.8452"/>
            <path id="shape40" transform="translate(319.355185322508, 607.460704718251)" fill="none" stroke="#4a4f4f" stroke-width="3.6" stroke-linecap="square" stroke-linejoin="miter" stroke-miterlimit="2" d="M0 0L0.36657 22.6634"/>
            <path id="shape41" transform="translate(354.92341520952, 607.609311813677)" fill="none" stroke="#4a4f4f" stroke-width="3.6" stroke-linecap="square" stroke-linejoin="miter" stroke-miterlimit="2" d="M0 0L0 22.2501"/>
            <path id="shape42" transform="translate(385.936440498461, 607.979075821314)" fill="none" stroke="#4a4f4f" stroke-width="3.6" stroke-linecap="square" stroke-linejoin="miter" stroke-miterlimit="2" d="M0 0L0.505079 21.5924"/>
            <path id="shape43" transform="translate(422.461462316911, 607.135353282411)" fill="none" stroke="#4a4f4f" stroke-width="3.6" stroke-linecap="square" stroke-linejoin="miter" stroke-miterlimit="2" d="M0 0L0.352821 22.0461"/>
            <path id="shape44" transform="translate(456.12507209363, 606.955364930429)" fill="none" stroke="#4a4f4f" stroke-width="3.6" stroke-linecap="square" stroke-linejoin="miter" stroke-miterlimit="2" d="M0.152735 0L0 23.1595"/>
        </g>
    </svg>
    <!-- Sprite de la terre -->
    <g id="terre" transform="rotate(315 379 439)">
        <path id="shape0" transform="translate(400.69681831192, 153.300363574021)" fill="#6e5b21" fill-rule="evenodd" stroke="#6e5b21" stroke-width="3.27272727272727" stroke-linecap="square" stroke-linejoin="bevel" d="M13.3682 0.335127C12.8368 0.130281 10.5713 19.6756 9.29088 22.4535C3.92814 34.0881 -7.62472 34.6907 7.49024 38.2417C16.6465 40.3929 30.148 42.5808 39.674 40.8669C43.589 40.1626 28.2427 0.752767 36.6109 0"/>
        <path id="shape1" transform="translate(59.8254937401259, 438.30905937905)" fill="#6e5b21" fill-rule="evenodd" stroke="#6e5b21" stroke-width="3.27272727272727" stroke-linecap="square" stroke-linejoin="bevel" d="M8.34124 22.9457C8.08124 24.8167 11.8237 21.4552 13.6397 20.9349C31.4737 15.825 80.4829 37.1703 78.297 5.14668C77.4931 -6.62997 53.6899 5.5722 44.9542 4.97912C36.5897 4.41125 -0.132442 3.2213 0.000359281 4.64399"/>
        <path id="shape2" transform="translate(92.7788583224467, 367.005117192225)" fill="#6e5b21" fill-rule="evenodd" stroke="#6e5b21" stroke-width="3.27272727272727" stroke-linecap="square" stroke-linejoin="bevel" d="M0.928905 5.05113C-3.69163 5.05113 10.1917 5.13916 14.7736 5.73571C18.4786 6.21811 50.3388 17.2898 51.9757 13.7006C58.5284 -0.667543 0.101815 -0.261268 0.153252 0.127404"/>
        <path id="shape3" transform="translate(212.325033992407, 650.867367725821)" fill="#6e5b21" fill-rule="evenodd" stroke="#6e5b21" stroke-width="3.27272727272727" stroke-linecap="square" stroke-linejoin="bevel" d="M24.6663 1.0067C24.6663 -4.40525 23.5693 13.5254 22.2076 18.6479C17.1946 37.5057 4.6901 55.8503 0.0210152 72.6509C-0.211992 73.4893 1.55096 71.624 2.42115 71.624C19.6974 71.624 30.1993 40.6715 39.6525 26.1256C44.1623 19.1863 49.7757 12.9399 55.5754 7.03629C56.4014 6.19544 56.3529 6.22985 55.3997 6.27272"/>
        <path id="shape4" transform="translate(609.470755394453, 485.045024170923)" fill="#6e5b21" fill-rule="evenodd" stroke="#6e5b21" stroke-width="3.27272727272727" stroke-linecap="square" stroke-linejoin="bevel" d="M87.1393 18.3109C64.6387 16.2869 47.0122 15.1997 23.9308 8.95059C21.6415 8.33078 2.06033 -1.39185 0.324639 0.169511C-0.756078 1.14168 1.20552 2.98159 1.23201 4.43499C1.38687 12.9327 3.45417 20.6897 3.8224 29.001C3.95839 32.0703 1.61265 40.8756 3.10528 38.1902C4.93111 34.9053 89.5751 32.5043 98.0862 35.8731"/>
        <path id="shape5" transform="translate(675.181228779133, 530.514327888856)" fill="#6e5b21" fill-rule="evenodd" stroke="#6e5b21" stroke-width="3.27272727272727" stroke-linecap="square" stroke-linejoin="bevel" d="M18.9906 0.0372364C18.9906 3.68412 -4.87389 11.7883 0.901454 17.8641C1.65952 18.6617 25.913 0 21.6502 0"/>
        <path id="shape6" transform="translate(719.782633247601, 469.148961320189)" fill="#6e5b21" fill-rule="evenodd" stroke="#6e5b21" stroke-width="3.27272727272727" stroke-linecap="square" stroke-linejoin="bevel" d="M1.57405 0C1.57405 0.716183 -2.53522 16.0853 2.52532 13.4744C6.33965 11.5065 -1.37421 -0.854165 2.66435 0.599009"/>
        <path id="shape7" transform="translate(393.863083193939, 86.4388061236428)" fill="#19742d" fill-rule="evenodd" stroke="#19742d" stroke-width="3.27272727272727" stroke-linecap="square" stroke-linejoin="bevel" d="M23.8755 15.1832C22.9204 19.2885 23.5789 14.5407 23.7585 13.1426C25.9767 -4.1323 45.377 -4.63659 49.6185 13.1689C49.9727 14.6562 51.4226 18.3643 50.0282 17.7372C46.6387 16.2127 58.6876 7.88198 64.9413 14.5249C69.438 19.3016 74.5499 37.182 63.1119 37.182C62.907 37.182 63.528 37.2457 63.7266 37.1951C70.4825 35.4751 73.2494 40.5722 73.2686 47.6219C73.2801 51.8667 69.3404 54.4213 65.7901 55.6789C59.1406 58.0342 49.7499 57.2359 57.4921 58.0222C61.9727 58.4773 59.6876 63.5645 58.1506 65.8423C56.9036 67.6904 55.1652 68.8153 53.043 69.6733C50.8612 70.5555 33.1248 71.3994 33.1248 66.3294C33.1248 65.8966 34.1035 67.1571 33.7834 67.4484C28.8414 71.9463 15.5865 73.5118 11.4797 67.5011C8.97258 63.8316 8.54805 60.1485 9.63572 55.85C10.7093 51.6071 25.6901 49.2461 21.373 49.9652C12.897 51.3772 -2.79537 46.889 0.430326 34.8781C1.62954 30.4128 14.8434 23.6084 12.0359 27.2819C10.0711 29.8527 7.11742 17.5334 13.7189 12.5239C18.804 8.66505 23.0606 12.7269 26.5976 15.6966"/>
        <path id="shape8" transform="translate(182.140285812387, 711.851110739078)" fill="#19742d" fill-rule="evenodd" stroke="#19742d" stroke-width="3.27272727272727" stroke-linecap="square" stroke-linejoin="bevel" d="M15.5949 37.4888C16.1103 37.4888 15.5033 38.0781 15.4086 38.2149C4.95031 53.3348 28.6772 42.7278 31.2211 42.4227C32.861 42.226 30.0277 49.1683 34.9259 47.6357C38.7009 46.4546 49.9534 40.7891 45.1709 35.2919C44.3845 34.388 41.3317 32.4986 42.1077 33.4115C45.4256 37.3144 55.1882 23.0445 46.9301 22.6874C44.4319 22.5793 55.6973 21.8266 49.2275 15.7056C41.0039 7.92536 29.3863 3.01224 29.6274 1.74193C29.9276 0.160303 26.4848 0.0756393 25.9641 0.029054C19.1478 -0.580725 9.78963 8.5521 2.94905 13.8624C-5.1105 20.1189 7.90439 25.8416 8.53723 23.2087C8.9178 21.6254 4.20541 22.3859 3.48717 22.6129C-4.24297 25.0561 1.40694 36.738 15.2224 36.26"/>
        <path id="shape9" transform="translate(18.098267518768, 413.702136064665)" fill="#19742d" fill-rule="evenodd" stroke="#19742d" stroke-width="3.27272727272727" stroke-linecap="square" stroke-linejoin="bevel" d="M5.03531 31.2812C6.29299 32.4879 -6.32601 18.6313 4.26952 8.66007C6.99678 6.0935 18.0089 6.51447 14.3282 10.2985C12.1182 12.5706 14.7856 2.8622 17.5777 1.36174C20.2803 -0.090668 25.9206 -0.0338668 29.5819 0.0212303C35.5744 0.111407 51.9115 14.3011 51.3344 24.5972C51.3063 25.0987 51.0371 38.9485 45.146 36.3453C43.2608 35.5122 49.2325 35.625 51.293 35.6751C55.2925 35.7723 54.9304 48.1805 54.5425 49.2105C50.6304 59.5981 27.409 65.3526 17.5156 59.9718C8.60376 55.1248 17.3501 52.6928 20.4132 47.2369C22.4349 43.6358 11.8785 48.1927 8.03637 46.6784C-5.92196 41.1768 14.6229 42.8619 9.58864 38.5609C1.82106 31.9246 -0.747597 33.7234 2.75864 31.6535"/>
        <path id="shape10" transform="translate(66.0317791202172, 353.076182529935)" fill="#19742d" fill-rule="evenodd" stroke="#19742d" stroke-width="3.27272727272727" stroke-linecap="square" stroke-linejoin="bevel" d="M29.8428 20.7484C32.521 19.8723 30.9032 24.8494 30.3602 25.6822C23.5457 36.1334 2.37669 28.0974 0.225433 23.5411C-1.25411 20.4075 5.07344 17.1587 4.01298 13.8597C3.32636 11.7236 1.99407 3.44269 5.58595 2.68876C13.2262 1.08508 26.168 -5.15564 32.5334 9.54025C33.7874 12.4355 53.0094 17.7225 29.8635 22.424"/>
        <path id="shape11" transform="translate(684.036470866798, 481.708206185118)" fill="#19742d" fill-rule="evenodd" stroke="#19742d" stroke-width="3.27272727272727" stroke-linecap="square" stroke-linejoin="bevel" d="M18.9571 62.2176C2.09595 73.5934 -9.46435 19.099 10.6783 3.25386C12.1149 2.12379 28.9023 -3.83315 24.773 3.90549C24.2026 4.97445 26.1956 1.62493 27.3808 1.37342C33.1569 0.14771 45.373 1.08721 50.3751 3.79378C63.2246 10.7465 69.2139 65.378 32.6585 66.5184C27.4311 66.6815 15.5187 70.288 18.3155 61.2309"/>
        <path id="shape12" transform="translate(656.051474580656, 538.694139391389)" fill="#19742d" fill-rule="evenodd" stroke="#19742d" stroke-width="3.27272727272727" stroke-linecap="square" stroke-linejoin="bevel" d="M16.9108 0.0372364C19.0517 0.0372364 10.4719 4.44206 12.5851 4.78487C16.8273 5.47302 1.75703 4.12303 0.125562 8.09891C-1.51082 12.0867 13.4606 18.5887 9.4185 17.0915C4.77976 15.3733 -1.55122 21.4092 4.12008 24.967C18.4101 33.9315 44.9941 4.7824 15.0895 0"/>
        <path id="shape13" transform="translate(713.929498007372, 457.679491178223)" fill="#19742d" fill-rule="evenodd" stroke="#19742d" stroke-width="3.27272727272727" stroke-linecap="square" stroke-linejoin="bevel" d="M8.85039 0.993698C9.89391 0.396341 -4.68994 7.90362 1.56506 11.0848C7.20245 13.9518 15.3193 9.71414 14.6869 7.26803C14.0041 4.62667 9.88524 -2.08825 9.88524 0.639953"/>
        <path id="shape14" transform="translate(336.095175328834, 171.029133542914)" fill="#0a9705" fill-rule="evenodd" stroke="#0a9705" stroke-width="3.27272727272727" stroke-linecap="square" stroke-linejoin="bevel" d="M11.7665 19.7476L0 3.5019L12.7178 13.0729L14.6203 0L20.0499 11.4404L32.2408 2.06691L25.3185 18.0229C25.2014 18.0668 20.6841 18.6417 11.7665 19.7476Z"/>
        <path id="shape15" transform="translate(155.725462382876, 255.590121954365)" fill="#0a9705" fill-rule="evenodd" stroke="#0a9705" stroke-width="3.27272727272727" stroke-linecap="square" stroke-linejoin="bevel" d="M23.4911 38.2045L0 38.521L21.0488 28.8209L18.1098 14.9504L33.26 16.2351L37.2752 0L43.4015 19.9028C43.3464 19.878 36.7095 25.9786 23.4911 38.2045Z"/>
        <path id="shape16" transform="translate(247.156092068135, 197.150546379087)" fill="#0a9705" fill-rule="evenodd" stroke="#0a9705" stroke-width="3.27272727272727" stroke-linecap="square" stroke-linejoin="bevel" d="M16.4334 24.4457L0 13.7216L18.6273 15.7882L20.3451 2.81135L30.7557 11.3571L38.8275 0L42.2425 15.5462C41.87 15.72 33.2669 18.6864 16.4334 24.4457Z"/>
        <path id="shape17" transform="translate(106.073243745948, 392.727272727273)" fill="#0a9705" fill-rule="evenodd" stroke="#0a9705" stroke-width="3.27272727272727" stroke-linecap="square" stroke-linejoin="bevel" d="M25.3331 35.9887L4.82239 54.5696L20.5107 30.4032L0 27.0892L21.3386 22.3415L9.18945 8.56408L26.6163 14.9874L15.5641 0L37.0062 12.4925C37.1028 12.629 33.2117 20.4611 25.3331 35.9887Z"/>
        <path id="shape18" transform="translate(102.765671394074, 476.978349214598)" fill="#0a9705" fill-rule="evenodd" stroke="#0a9705" stroke-width="3.27272727272727" stroke-linecap="square" stroke-linejoin="bevel" d="M30.9213 9.88626L0 0L20.4072 18.3017L5.05006 30.9062L25.7056 34.425L23.3048 52.8756L39.7382 33.2893C39.5312 33.19 36.5922 25.389 30.9213 9.88626Z"/>
        <path id="shape19" transform="translate(143.136644215292, 560.178358000899)" fill="#0a9705" fill-rule="evenodd" stroke="#0a9705" stroke-width="3.27272727272727" stroke-linecap="square" stroke-linejoin="bevel" d="M27.3821 2.10385L0 0L22.9736 15.7882L20.6763 37.646L40.1314 34.6484L46.5889 61.1793L57.3513 34.3319C57.1029 34.394 47.1132 23.6513 27.3821 2.10385Z"/>
        <path id="shape20" transform="translate(230.395073244213, 656.750872389223)" fill="#0a9705" fill-rule="evenodd" stroke="#0a9705" stroke-width="3.27272727272727" stroke-linecap="square" stroke-linejoin="bevel" d="M25.4366 0L0 7.46589L24.3603 11.0406L23.3876 25.5255L35.7851 17.1287L45.968 30.4035L44.1052 8.04305C43.9397 8.15476 37.7168 5.47375 25.4366 0Z"/>
        <path id="shape21" transform="translate(421.831216008528, 671.682042553411)" fill="#0a9705" fill-rule="evenodd" stroke="#0a9705" stroke-width="3.27272727272727" stroke-linecap="square" stroke-linejoin="bevel" d="M9.97594 8.02444L0 35.5421L24.2155 21.0944L33.9637 34.9649L41.9528 17.4266L62.2565 23.7382L44.0018 0C44.0294 0.273067 32.6874 2.94788 9.97594 8.02444Z"/>
        <path id="shape22" transform="translate(550.127940198701, 582.01416929793)" fill="#0a9705" fill-rule="evenodd" stroke="#0a9705" stroke-width="3.27272727272727" stroke-linecap="square" stroke-linejoin="bevel" d="M30.6749 3.5019L60.4131 0L36.646 14.7448L42.2072 38.8632L21.7476 26.7514L14.5179 49.0529L0 30.1743C0.409779 29.5599 10.6347 20.6691 30.6749 3.5019Z"/>
        <path id="shape23" transform="translate(628.622116866027, 382.436070083231)" fill="#0a9705" fill-rule="evenodd" stroke="#0a9705" stroke-width="3.27272727272727" stroke-linecap="square" stroke-linejoin="bevel" d="M0 19.9215L15.6883 0L9.93455 20.6289L22.5183 34.7043L10.1001 33.8479L21.2765 54.2906L0.372545 40.327C0.538121 40.327 0.413939 33.5251 0 19.9215Z"/>
        <path id="shape24" transform="translate(519.658234204152, 216.704014373026)" fill="#0a9705" fill-rule="evenodd" stroke="#0a9705" stroke-width="3.27272727272727" stroke-linecap="square" stroke-linejoin="bevel" d="M0 19.4316L3.10261 0L6.79063 21.5907L30.5578 16.509L16.5961 34.1501L45.2221 36.4672L26.46 46.9465C26.5966 47.087 17.7766 37.9153 0 19.4316Z"/>
        <path id="shape25" transform="translate(588.208424940757, 292.666312923416)" fill="#0a9705" fill-rule="evenodd" stroke="#0a9705" stroke-width="3.27272727272727" stroke-linecap="square" stroke-linejoin="bevel" d="M0 11.6642L8.98587 0L8.63463 18.9313L26.3722 22.3016L15.3374 39.2582L42.0316 44.1292L14.1081 52.6602C14.1666 52.3442 9.46395 38.6789 0 11.6642Z"/>
        <circle id="shape26" transform="translate(124.363636363636, 184.254545454545)" r="254.618181818182" cx="254.618181818182" cy="254.618181818182" fill="#07dd00" fill-rule="evenodd" stroke="#07dd00" stroke-width="3.27272727272727" stroke-linecap="square" stroke-linejoin="bevel"/>
        <circle id="shape27" transform="translate(149.890909097153, 209.454545460296)" r="229.090909090909" cx="229.090909090909" cy="229.090909090909" fill="#977200" fill-rule="evenodd" stroke="#977200" stroke-width="3.27272727272727" stroke-linecap="square" stroke-linejoin="bevel"/>
        <circle id="shape28" transform="translate(215.345454554491, 274.909090909091)" r="163.636363636364" cx="163.636363636364" cy="163.636363636364" fill="#5e4700" fill-rule="evenodd" stroke="#5e4700" stroke-width="3.27272727272727" stroke-linecap="square" stroke-linejoin="bevel"/>
        <circle id="shape29" transform="translate(280.8, 340.363636363636)" r="98.1818181818182" cx="98.1818181818182" cy="98.1818181818182" fill="#ff0c00" fill-rule="evenodd" stroke="#ff0c00" stroke-width="3.27272727272727" stroke-linecap="square" stroke-linejoin="bevel"/>
        <circle id="shape30" transform="translate(346.254545454546, 405.818181818182)" r="32.7272727272727" cx="32.7272727272727" cy="32.7272727272727" fill="#e9ff00" fill-rule="evenodd" stroke="#e9ff00" stroke-width="3.27272727272727" stroke-linecap="square" stroke-linejoin="bevel"/>
        <path id="shape31" transform="translate(179.055881197274, 467.649056192209)" fill="#9e907c" fill-rule="evenodd" stroke="#9e907c" stroke-width="3.27272727272727" stroke-linecap="square" stroke-linejoin="bevel" d="M14.3505 29.0906C9.73518 29.0906 -8.87499 4.72208 5.13042 0.522506C22.8216 -4.78225 28.6002 32.1013 14.2626 30.0649C13.4573 29.9505 13.487 29.0568 13.487 28.4456"/>
        <path id="shape32" transform="translate(166.506949724787, 390.192686176269)" fill="#9e907c" fill-rule="evenodd" stroke="#9e907c" stroke-width="3.27272727272727" stroke-linecap="square" stroke-linejoin="bevel" d="M8.6066 36.4441C-3.40138 38.2445 -2.58418 1.75458 9.43448 0.0269666C17.7314 -1.16567 30.5835 37.5947 18.8516 38.1756C18.2906 38.2034 16.8552 38.4943 16.2024 37.9522C13.9087 36.0476 8.15629 38.3889 7.61315 35.4574"/>
        <path id="shape33" transform="translate(180.411953946055, 348.485051824535)" fill="#9e907c" fill-rule="evenodd" stroke="#9e907c" stroke-width="3.27272727272727" stroke-linecap="square" stroke-linejoin="bevel" d="M19.2689 19.2252C22.3465 19.423 5.5443 13.9269 3.68408 11.2753C-16.9517 -18.1402 57.5179 19.3664 20.4279 18.7598"/>
        <path id="shape34" transform="translate(197.005078014804, 439.608197277904)" fill="#9e907c" fill-rule="evenodd" stroke="#9e907c" stroke-width="3.27272727272727" stroke-linecap="square" stroke-linejoin="bevel" d="M3.83481 12.7776C7.9406 13.7009 -3.19885 1.26605 0.937233 0.489567C21.7285 -3.41368 5.67142 17.4667 5.18011 12.1632"/>
        <path id="shape35" transform="translate(221.941197200861, 298.184430819593)" fill="#9e907c" fill-rule="evenodd" stroke="#9e907c" stroke-width="3.27272727272727" stroke-linecap="square" stroke-linejoin="bevel" d="M3.49081 18.2557C3.49081 19.1217 1.76646 17.5927 1.62808 17.3621C-6.41363 3.95785 17.6191 -6.79035 23.9808 5.18576C30.6197 17.6837 8.71902 26.9787 4.48427 17.4551"/>
        <path id="shape36" transform="translate(277.955403793224, 241.203011468294)" fill="#9e907c" fill-rule="evenodd" stroke="#9e907c" stroke-width="3.27272727272727" stroke-linecap="square" stroke-linejoin="bevel" d="M8.73964 29.8833C11.2361 33.0273 5.27882 22.5724 2.841 19.3826C-3.54821 11.0226 1.13563 -2.00998 13.9139 0.261726C19.3897 1.23521 21.7386 6.94826 23.8484 11.414C27.9607 20.118 25.8515 32.8751 15.4662 34.9846C11.4346 35.8035 10.2533 28.0963 8.57406 27.8725C8.17588 27.8194 7.54408 27.745 7.18737 27.9283"/>
        <path id="shape37" transform="translate(328.811261564317, 222.278985900585)" fill="#9e907c" fill-rule="evenodd" stroke="#9e907c" stroke-width="3.27272727272727" stroke-linecap="square" stroke-linejoin="bevel" d="M9.69696 16.2999C6.36518 18.4407 -2.4948 12.8672 0.673086 9.41121C1.47716 8.53399 3.21412 7.00314 2.12187 5.70619C-4.64902 -2.33371 21.579 -3.83253 16.6304 14.2519C15.8689 17.0349 8.53793 14.4386 8.53793 17.3239"/>
        <path id="shape38" transform="translate(371.492798099248, 237.158636415667)" fill="#9e907c" fill-rule="evenodd" stroke="#9e907c" stroke-width="3.27272727272727" stroke-linecap="square" stroke-linejoin="bevel" d="M23.663 26.9086C23.663 33.9809 -15.1608 6.21096 6.65013 0.619701C14.7247 -1.45022 25.6492 1.78222 30.3689 8.56966C36.9074 17.9729 67.0745 20.3482 64.2912 31.8238C62.4537 39.3998 27.0243 30.8259 22.3384 26.6107"/>
        <path id="shape39" transform="translate(453.036749083353, 241.382583583927)" fill="#9e907c" fill-rule="evenodd" stroke="#9e907c" stroke-width="3.27272727272727" stroke-linecap="square" stroke-linejoin="bevel" d="M1.41591 2.33495C-5.82258 2.33495 16.7297 -2.13321 23.1063 1.29234C32.9742 6.59336 31.6698 21.4807 37.7184 29.2382C41.2564 33.7758 69.2105 36.7259 62.6168 50.1837C46.5806 82.9141 11.763 16.3528 1.97472 4.34572"/>
        <path id="shape40" transform="translate(551.837663302325, 336.425291257146)" fill="#9e907c" fill-rule="evenodd" stroke="#9e907c" stroke-width="3.27272727272727" stroke-linecap="square" stroke-linejoin="bevel" d="M1.25675 14.9798C1.25675 15.3947 -1.97098 -1.47134 1.91906 0.103887C28.0949 10.7035 -0.208631 18.0931 0.283996 14.1048"/>
        <path id="shape41" transform="translate(562.28709125219, 393.477631599094)" fill="#9e907c" fill-rule="evenodd" stroke="#9e907c" stroke-width="3.27272727272727" stroke-linecap="square" stroke-linejoin="bevel" d="M2.50136 1.10586C-3.42119 -1.17743 3.09785 19.5129 2.6038 22.973C0.815324 35.499 24.6735 0 0.218303 0"/>
        <path id="shape42" transform="translate(577.337302168853, 438.963353668064)" fill="#9e907c" fill-rule="evenodd" stroke="#9e907c" stroke-width="3.27272727272727" stroke-linecap="square" stroke-linejoin="bevel" d="M10.6476 0.552228C13.3069 -2.23875 5.44622 6.29316 3.37399 9.54395C-2.33431 18.4988 -1.23724 28.8788 10.0475 18.1539C13.8839 14.5078 10.1957 -3.00674 9.88655 2.27685"/>
        <path id="shape43" transform="translate(537.147284771931, 507.110205929671)" fill="#9e907c" fill-rule="evenodd" stroke="#9e907c" stroke-width="3.27272727272727" stroke-linecap="square" stroke-linejoin="bevel" d="M13.0794 31.0463C8.77123 26.8186 6.77106 20.4134 2.82026 15.7354C-2.34252 9.62227 0.133313 6.1058 5.80579 1.09584C14.2174 -6.33337 30.0372 26.2862 14.7331 30.6514C13.1433 31.1048 12.5951 31.6302 11.25 30.2827"/>
        <path id="shape44" transform="translate(354.964954847674, 643.135346740323)" fill="#9e907c" fill-rule="evenodd" stroke="#9e907c" stroke-width="3.27272727272727" stroke-linecap="square" stroke-linejoin="bevel" d="M14.4551 0C-5.07454 4.25893 7.66499 15.6171 5.05944 25.7508C4.63495 27.4018 -3.60107 35.0912 1.86901 35.8879C41.0503 41.5944 16.5855 -5.61914 11.1476 3.18594"/>
        <path id="shape45" transform="translate(216.824574544018, 557.004050944798)" fill="#9e907c" fill-rule="evenodd" stroke="#9e907c" stroke-width="3.27272727272727" stroke-linecap="square" stroke-linejoin="bevel" d="M16.0781 65.0695C10.5158 66.6091 13.1326 39.2996 12.9321 38.0732C11.4971 29.2952 -13.6487 1.11757 10.2829 0.0175965C21.8154 -0.512472 25.6533 11.0571 30.8557 17.9655C42.9916 34.081 75.3001 35.0655 64.4676 59.9681C63.9968 61.0506 63.4959 62.2135 62.729 63.1332C61.4324 64.6885 59.6993 64.8408 57.8446 64.995C50.1663 65.6335 44.0392 61.3402 37.2304 61.7555C35.8365 61.8405 4.31639 79.0939 14.2154 59.2606"/>
        <path id="shape46" transform="translate(583.58348135713, 485.300239053242)" fill="#9e907c" fill-rule="evenodd" stroke="#9e907c" stroke-width="3.27272727272727" stroke-linecap="square" stroke-linejoin="bevel" d="M21.9888 1.97828C21.9888 2.68973 20.5736 1.73586 19.9191 1.45698C7.6265 -3.781 11.39 6.52343 5.01728 10.0213C4.05079 10.5518 -0.864444 11.136 0.132795 13.1864C4.6692 22.5139 34.9527 14.5981 25.9212 3.76563C23.4998 0.861404 22.8089 0.48664 19.6707 1.27079"/>
        <path id="shape47" transform="translate(490.180588334515, 621.359460337573)" fill="#9e907c" fill-rule="evenodd" stroke="#9e907c" stroke-width="3.27272727272727" stroke-linecap="square" stroke-linejoin="bevel" d="M6.89818 1.12429C-14.1448 3.01724 20.081 30.433 15.7151 8.83222C13.8128 -0.579273 12.0979 0.00720232 4.08339 0.00720232"/>
        <path id="shape48" transform="translate(417.087164703876, 608.28386093256)" fill="#9e907c" fill-rule="evenodd" stroke="#9e907c" stroke-width="3.27272727272727" stroke-linecap="square" stroke-linejoin="bevel" d="M2.75051 16.0617C0.170065 16.9322 -4.59644 -4.41849 11.0707 0.832039C42.4878 11.3609 1.88124 23.6282 1.88124 17.6256"/>
        <path id="shape49" transform="translate(314.813390302524, 608.298437508601)" fill="#9e907c" fill-rule="evenodd" stroke="#9e907c" stroke-width="3.27272727272727" stroke-linecap="square" stroke-linejoin="bevel" d="M8.95929 23.237C10.4436 23.237 2.71758 13.1283 2.27416 12.3826C-7.62804 -4.2708 17.6481 -2.90776 23.7162 9.23613C27.3623 16.5329 25.8386 33.9486 12.2294 25.6015C10.6823 24.6526 9.04587 19.253 9.22835 21.0587"/>
        <path id="shape50" transform="translate(383.192909053552, 180.481657794782)" fill="#9e907c" fill-rule="evenodd" stroke="#9e907c" stroke-width="3.27272727272727" stroke-linecap="square" stroke-linejoin="bevel" d="M2.09977 38.6571C1.26967 38.6571 2.98048 39.1383 3.50717 38.4895C5.92734 35.5086 -2.6581 30.1536 0.857955 25.5127C7.22228 17.1123 16.7203 19.1857 22.983 11.3442C25.2135 8.55142 26.8139 -4.21603 33.3832 1.42074C45.6177 11.9184 44.5727 45.2748 10.1612 42.1201C9.45078 42.055 2.72068 40.4338 2.72068 39.6718"/>
        <path id="shape51" transform="translate(130.972973265609, 519.712664965644)" fill="#9e907c" fill-rule="evenodd" stroke="#9e907c" stroke-width="3.27272727272727" stroke-linecap="square" stroke-linejoin="bevel" d="M30.7397 1.26301C31.6489 0.854082 29.3719 2.72199 28.7942 3.53443C24.3565 9.77523 -12.5039 49.1661 4.4132 58.1229C7.14947 59.5717 16.1822 53.8103 20.3499 52.463C26.9603 50.326 35.5145 39.3117 41.4608 36.4886C85.5247 15.5685 28.0077 -12.8761 28.0077 6.40163"/>
        <path id="shape52" transform="translate(542.450076486127, 567.103963007488)" fill="#9e907c" fill-rule="evenodd" stroke="#9e907c" stroke-width="3.27272727272727" stroke-linecap="square" stroke-linejoin="bevel" d="M16.5616 1.75011C18.7572 -1.40995 8.61967 1.02167 7.04104 1.93629C-0.286992 6.18199 -1.54893 25.7637 1.65983 32.6191C2.00669 33.3601 36.7935 46.3751 37.7967 45.7635C53.0276 36.4779 26.9993 0 15.8166 0"/>
        <path id="shape53" transform="translate(225.811477669924, 245.157277634494)" fill="#9e907c" fill-rule="evenodd" stroke="#9e907c" stroke-width="3.27272727272727" stroke-linecap="square" stroke-linejoin="bevel" d="M15.7087 22.1957C19.3155 22.1957 8.41869 22.4136 4.90493 21.5999C-5.1343 19.2752 2.1539 1.78354 9.70663 0.337979C30.4708 -3.6362 35.7089 28.8631 16.8264 23.2011"/>
        <path id="shape54" transform="translate(235.328397538591, 391.890511975206)" fill="#685436" fill-rule="evenodd" stroke="#685436" stroke-width="3.27272727272727" stroke-linecap="square" stroke-linejoin="bevel" d="M60.1957 137.863C60.9511 137.863 58.6868 138.226 57.9419 138.1C39.858 135.047 27.5594 118.542 19.8618 103.187C16.3008 96.0831 18.3898 86.5157 16.2616 78.8577C9.68107 55.1795 -18.2764 14.4578 18.9544 0.104384C23.7058 -1.72742 25.0133 21.1256 25.0133 23.4855C25.0133 45.8896 29.7172 62.7901 33.9991 81.833C36.9146 94.7986 78.0255 119.363 78.2553 129.49C78.5451 142.263 74.7788 146.978 63.474 139.838C61.974 138.891 56.3028 135.664 56.3028 136.573"/>
        <path id="shape55" transform="translate(350.13906525627, 552.107991077376)" fill="#685436" fill-rule="evenodd" stroke="#685436" stroke-width="3.27272727272727" stroke-linecap="square" stroke-linejoin="bevel" d="M47.7128 4.58035C27.0677 -0.419666 -15.2558 -8.03276 5.65186 23.6433C6.91133 25.5515 14.3271 22.9785 16.511 23.0904C22.6835 23.4067 22.1277 28.9505 25.9067 31.516C30.4854 34.6246 38.0236 23.4093 40.4831 21.3263C44.8187 17.6543 48.5541 28.389 52.7765 27.2769C56.2517 26.3616 64.876 17.5717 63.138 13.6379C59.9579 6.43995 53.6359 7.39157 47.8006 3.6588C47.0394 3.17192 45.0145 3.05573 43.9955 2.94789"/>
        <path id="shape56" transform="translate(436.513037450551, 322.361147171437)" fill="#685436" fill-rule="evenodd" stroke="#685436" stroke-width="3.27272727272727" stroke-linecap="square" stroke-linejoin="bevel" d="M43.1967 191.313C41.4616 191.938 41.0333 180.582 41.0893 179.886C43.6766 147.689 78.303 140.549 70.769 106.425C67.4445 91.367 62.4723 68.9192 53.1485 56.5033C41.2598 40.6718 -7.28499 31.9842 0.930937 2.42127C3.03014 -5.13216 30.2321 7.23667 32.9815 9.03012C42.6972 15.3678 43.3937 30.1163 51.0118 38.2302C57.7104 45.3647 71.0616 51.1658 79.1402 57.3722C90.0418 65.7472 94.6852 94.1496 96.4387 107.557C98.9757 126.955 84.1778 146.022 77.9987 161.771C75.2351 168.815 72.3823 176.769 70.6519 184.152C61.2764 224.152 30.0967 193.952 45.8603 184.836"/>
        <path id="shape57" transform="translate(309.964882837724, 281.689240622777)" fill="#685436" fill-rule="evenodd" stroke="#685436" stroke-width="3.27272727272727" stroke-linecap="square" stroke-linejoin="bevel" d="M76.286 16.4208C76.286 12.9742 69.3899 16.2936 65.9537 16.0259C55.0534 15.1766 42.1272 11.3332 31.4152 14.92C25.0264 17.0592 -3.36575 34.6283 0.330495 44.357C1.75717 48.1121 6.04754 53.0254 9.98957 53.6779C15.4523 54.5821 22.6287 46.5127 27.7272 44.7783C44.7257 38.9959 59.8857 46.3364 78.0422 41.0131C93.9897 36.3374 89.0009 48.2603 102.102 47.3323C103.963 47.2005 107.659 48.9343 107.693 47.069C107.807 40.8001 108.848 34.6018 108.571 28.322C108.346 23.2352 107.065 19.6917 107.605 13.6825C107.72 12.3963 112.538 10.8464 112.434 10.6019C108.206 0.617867 82.5725 -3.2046 75.7591 3.01879C75.083 3.63632 80.1702 22.2381 73.1834 15.7625"/>
    </g>
    <!-- Sprite de l'obus du tank joueur -->
    <svg id="obus" viewBox="-1900 -600 3000 2000" x="466" y="47" width="50" height="50">
        <ellipse id="shape0" transform="translate(309.599999522658, 349.200000073437)" rx="72" ry="67.68" cx="72" cy="67.68" fill="#181818" fill-rule="evenodd" stroke="#181818" stroke-width="28.8" stroke-linecap="square" stroke-linejoin="bevel"/>
    </svg>
    <!-- Sprite de l'ennemi' -->
    <svg id="ennemi" viewBox="-1900 -600 3000 2000" x="380" y="20" width="150" height="150">
        <path id="shape0" transform="translate(467.372568739443, 402.601619305167)" fill="none" stroke="#dfbc8d" stroke-width="15.5088" stroke-linecap="square" stroke-linejoin="miter" stroke-miterlimit="2" d="M0 186.939L66.7749 0"/>
        <path id="shape1" transform="translate(264.11656990892, 411.244538174356)" fill="none" stroke="#dfbc8d" stroke-width="15.5088" stroke-linecap="square" stroke-linejoin="miter" stroke-miterlimit="2" d="M66.2811 181.212L0 0"/>
        <rect id="shape2" transform="translate(366.065800843764, 443.96062411758)" fill="#a39494" fill-rule="evenodd" width="65.52" height="88.5600000000001"/>
        <path id="shape3" transform="translate(353.153915742569, 476.671461287915)" fill="#d97330" fill-rule="evenodd" stroke="#d97330" stroke-width="2.4552" stroke-linecap="square" stroke-linejoin="bevel" d="M0.0150224 11.7512L1.86421 20.454L5.26802 24.9262L9.27186 31.2559L17.6723 33.0113L23.5853 28.0841L27.0164 23.0871C28.2128 20.5484 29.3729 18.5933 30.4966 17.2218C31.6203 15.8503 33.0349 14.8936 34.7404 14.3518L36.4369 19.9896L37.6206 25.5856L39.6061 29.1615L41.6517 31.4695L46.8774 30.0067C48.052 30.0376 48.8902 29.6181 49.3921 28.7481C49.8939 27.8782 50.5176 26.4742 51.2631 24.5361L54.5033 21.1971C55.1397 23.454 56.1506 24.9865 57.5361 25.7946C58.9217 26.6026 61.1527 26.7265 64.2292 26.1661C61.9927 20.0206 64.0619 18.3813 70.4368 21.2481C76.8117 24.115 81.6792 23.3906 85.0394 19.0748L86.2231 16.2698L84.9084 11.2543L83.9048 7.45089C86.2976 7.72644 85.9903 6.80848 82.9829 4.69702C78.4718 1.52983 83.5011 -1.4098 71.1568 2.27287C58.8126 5.95554 52.4413 3.98649 50.2703 3.54067C48.0993 3.09485 44.7881 -0.258099 39.6061 0.0158954C34.4241 0.28989 29.9456 0.24345 26.58 2.96017C23.2144 5.6769 20.0342 7.7156 16.5759 9.32706C13.1175 10.9385 6.70264 9.05771 3.3261 10.7388C-0.0504355 12.4199 -0.0504355 12.4199 0.0150224 11.7512Z"/>
        <path id="shape4" transform="translate(375.991721183403, 489.028387349761)" fill="#d97330" fill-rule="evenodd" stroke="#d97330" stroke-width="2.4552" stroke-linecap="square" stroke-linejoin="bevel" d="M0 3.24766L5.27657 20.2839L11.043 25.0257L18.1324 16.0905L20.4737 9.80866L20.115 0.371068L10.9196 0C10.629 0.243 6.98914 1.32555 0 3.24766Z"/>
        <path id="shape5" transform="translate(361.572436128527, 475.518407292263)" fill="#e9d44c" fill-rule="evenodd" stroke="#e9d44c" stroke-width="2.4552" stroke-linecap="square" stroke-linejoin="bevel" d="M0 10.2466L1.01829 19.6153L2.44929 23.4048C3.85071 23.8492 4.93329 24.0692 5.697 24.0648C6.46071 24.0604 8.19386 23.3369 10.8964 21.8942L13.2339 21.0667L15.7217 22.725L18.5876 23.1289C20.5959 21.4608 22.032 20.6715 22.896 20.7613C23.76 20.8511 25.803 21.3053 29.025 22.1241C29.2753 23.2296 29.9961 23.8185 31.1876 23.8908C32.9747 23.9991 33.5379 23.7167 35.4973 23.142C37.4567 22.5674 40.6543 20.7285 41.7999 20.9518C42.5636 21.1006 44.1141 21.2221 46.4516 21.3163C47.0379 20.7996 48.4933 20.3366 50.8179 19.9272C53.1424 19.5178 55.1379 17.3626 56.8041 13.4615L57.9806 11.4846C58.176 10.8169 58.5861 10.2357 59.211 9.74093C59.8359 9.24617 60.9531 8.97799 62.5629 8.9364L65.097 10.0365L66.474 8.44383L63.1029 18.4627L66.1847 20.2031C67.2339 19.844 68.2264 19.5474 69.1624 19.3132C70.0984 19.0789 71.2646 18.4222 72.6609 17.3429L72.2173 6.74612L69.9724 3.35397C67.9307 1.49972 66.3441 0.41717 65.2127 0.106305C63.5156 -0.359992 55.3731 0.838589 53.838 1.17682C52.3029 1.51505 51.9441 1.53475 0 10.2466Z"/>
        <ellipse id="shape6" transform="translate(200.52, 88.2749175007319)" rx="192.24" ry="196.56" cx="192.24" cy="196.56" fill="#6a0b0b" fill-rule="evenodd" stroke="#6a0b0b" stroke-width="28.8" stroke-linecap="square" stroke-linejoin="bevel"/>
        <path id="shape7" transform="translate(278.382711804448, 594.786170408049)" fill="#a98555" fill-rule="evenodd" stroke="#a98555" stroke-width="15.5088" stroke-linecap="square" stroke-linejoin="bevel" d="M0.393838 0.111455L228.645 0L228.755 81.1023L179.138 162.335L48.0254 163.245L0.481115 81.6782C-0.129825 81.1952 -0.158917 54.0063 0.393838 0.111455Z"/>
        <path id="shape8" transform="translate(282.225301840758, 610.228171632596)" fill="none" stroke="#95754a" stroke-width="2.4552" stroke-linecap="square" stroke-linejoin="miter" stroke-miterlimit="2" d="M0 0L212.913 0.780187"/>
        <path id="shape9" transform="translate(283.16353150619, 659.212782741342)" fill="none" stroke="#95754a" stroke-width="2.4552" stroke-linecap="square" stroke-linejoin="miter" stroke-miterlimit="2" d="M0 0L206.127 0.482973"/>
        <path id="shape10" transform="translate(311.659530181896, 707.67726904499)" fill="none" stroke="#95754a" stroke-width="2.4552" stroke-linecap="square" stroke-linejoin="miter" stroke-miterlimit="2" d="M0 0L153.15 1.56037"/>
        <path id="shape11" transform="translate(346.046738384739, 745.051951468501)" fill="none" stroke="#95754a" stroke-width="2.4552" stroke-linecap="square" stroke-linejoin="miter" stroke-miterlimit="2" d="M0 0L97.5977 1.63468"/>
    </svg>
    <!-- Sprite de la roquette de l'interface -->
    <svg id="roquette" viewBox="-1900 -600 3000 2000" x="-20" y="-130" width="350" height="350">
        <g transform="rotate(-22)">
            <path id="shape0" transform="matrix(0.787664613934165 0.616104257375279 -0.616104257375279 0.787664613934165 327.0496355618 282.59964277459)" fill="#aca09f" fill-rule="evenodd" stroke="#aca09f" stroke-width="3.6" stroke-linecap="square" stroke-linejoin="bevel" d="M0.586286 81.7137L0 0.433459L24.192 0L23.0811 81.2802C22.9989 81.3152 15.5006 81.4597 0.586286 81.7137Z"/>
            <path id="shape1" transform="matrix(0.787664613934165 0.616104257375279 -0.616104257375279 0.787664613934165 351.442546212295 250.058144003927)" fill="#d4342e" fill-rule="evenodd" stroke="#d4342e" stroke-width="3.6" stroke-linecap="square" stroke-linejoin="bevel" d="M0 40.2911L12.6225 0L25.8122 40.0264C25.8122 40.0264 17.2082 40.1146 0 40.2911Z"/>
            <path id="shape2" transform="matrix(0.787664613934165 0.616104257375279 -0.616104257375279 0.787664613934165 271.843193399836 329.514032297938)" fill="#d4342e" fill-rule="evenodd" stroke="#d4342e" stroke-width="3.6" stroke-linecap="square" stroke-linejoin="bevel" d="M13.3611 0.70273L0 23.4068L26.0434 17.785L46.3166 23.2755L37.7691 0L25.4417 7.28343C25.4417 7.28343 21.4149 5.08987 13.3611 0.70273Z"/>
            <path id="shape3" transform="matrix(0.787664613934165 0.616104257375279 -0.616104257375279 0.787664613934165 302.217175408458 314.377878435972)" fill="none" stroke="#d4342e" stroke-width="3.6" stroke-linecap="square" stroke-linejoin="miter" stroke-miterlimit="2" d="M0 0L23.5103 0.127279"/>
            <path id="shape0" transform="matrix(0.787664617045528 0.616104259808959 -0.616104259808959 0.787664617045528 307.246112325962 307.904200428265)" fill="none" stroke="#d4342e" stroke-width="3.6" stroke-linecap="square" stroke-linejoin="miter" stroke-miterlimit="2" d="M0 0L23.5103 0.127279"/>
            <path id="shape01" transform="matrix(0.787664633412703 0.616104272611218 -0.616104272611218 0.787664633412703 312.667161202927 301.159430133511)" fill="none" stroke="#d4342e" stroke-width="3.6" stroke-linecap="square" stroke-linejoin="miter" stroke-miterlimit="2" d="M0 0L23.5103 0.127279"/>
        </g>
    </svg>
    <!-- Sprite de l'obus de l'interface -->
    <svg id="obus" viewBox="-1900 -600 3000 2000" x="157" y="-20" width="120" height="120">
        <ellipse id="shape0" transform="translate(309.599999522658, 349.200000073437)" rx="72" ry="67.68" cx="72" cy="67.68" fill="#181818" fill-rule="evenodd" stroke="#181818" stroke-width="28.8" stroke-linecap="square" stroke-linejoin="bevel"/>
    </svg>
    <!-- Sprite du message PRET ! de la roquette -->
    <svg id="pretRoquette" viewBox="-1900 -600 3000 2000" x="30000" y="30000" width="650" height="650">
        <text id="shape0" krita:useRichText="true" transform="translate(279.473139995568, 418.26)" fill="#b63b3a" font-family="Bahnschrift SemiBold" font-size="48" font-size-adjust="0.210526" font-stretch="normal" kerning="0" letter-spacing="0" word-spacing="0">
            <tspan x="0">Prêt !</tspan>
        </text>
    </svg>
    <!-- Sprite du message PRET ! de l'obus -->
    <svg id="pretObus" viewBox="-1900 -600 3000 2000" x="30000" y="30000" width="650" height="650">
        <text id="shape0" krita:useRichText="true" transform="translate(279.473139995568, 418.26)" fill="#b63b3a" font-family="Bahnschrift SemiBold" font-size="48" font-size-adjust="0.210526" font-stretch="normal" kerning="0" letter-spacing="0" word-spacing="0">
            <tspan x="0">Prêt !</tspan>
        </text>
    </svg>
    <!-- Sprite du message RECHARGEMENT... de la roquette -->
    <svg id="rechargementRoquette" viewBox="-1900 -600 3000 2000" x="-182" y="-312" width="650" height="650">
        <text id="shape0" krita:useRichText="true" transform="translate(151.450010148248, 439.12005280557)" fill="#071368" font-family="Bahnschrift SemiBold" font-size="48" font-size-adjust="0.210526" font-stretch="normal" kerning="0" letter-spacing="0" word-spacing="0">
            <tspan x="0">Rechargement...</tspan>
        </text>
    </svg>
    <!-- Sprite du message RECHARGEMENT... de l'obus -->
    <svg id="rechargementObus" viewBox="-1900 -600 3000 2000" x="-182" y="-290" width="650" height="650">
        <text id="shape0" krita:useRichText="true" transform="translate(151.450010148248, 439.12005280557)" fill="#071368" font-family="Bahnschrift SemiBold" font-size="48" font-size-adjust="0.210526" font-stretch="normal" kerning="0" letter-spacing="0" word-spacing="0">
            <tspan x="0">Rechargement...</tspan>
        </text>
    </svg>
</svg>
